<?xml version="1.0" standalone="no"?>
<!DOCTYPE svg PUBLIC "-//W3C//DTD SVG 1.1//EN" "http://www.w3.org/Graphics/SVG/1.1/DTD/svg11.dtd" >
<svg xmlns="http://www.w3.org/2000/svg">
<metadata>Generated by IcoMoon</metadata>
<defs>
<font id="icomoon" horiz-adv-x="512">
<font-face units-per-em="512" ascent="480" descent="-32" />
<missing-glyph horiz-adv-x="512" />
<glyph unicode="&#x20;" d="" horiz-adv-x="256" />
<glyph unicode="&#xe600;" d="M368.615 40.499c6.861-6.938 6.861-18.125 0-25.063s-17.945-6.938-24.807 0l-200.448 202.419c-6.861 6.938-6.861 18.151 0 25.063l200.448 202.445c6.861 6.938 17.945 6.938 24.807 0s6.861-18.125 0-25.063l-182.784-189.901 182.784-189.901z" />
<glyph unicode="&#xe601;" d="M143.352 40.499c-6.861-6.938-6.861-18.125 0-25.063s17.946-6.938 24.806 0l200.448 202.419c6.861 6.938 6.861 18.151 0 25.063l-200.448 202.445c-6.861 6.938-17.946 6.938-24.806 0s-6.861-18.125 0-25.063l182.784-189.901-182.784-189.901z" />
<glyph unicode="&#xe602;" d="M409.6 256h-307.2c-14.131 0-25.6-11.469-25.6-25.6s11.469-25.6 25.6-25.6h307.2c14.157 0 25.6 11.469 25.6 25.6s-11.443 25.6-25.6 25.6zM102.4 307.2h307.2c14.157 0 25.6 11.469 25.6 25.6s-11.443 25.6-25.6 25.6h-307.2c-14.131 0-25.6-11.469-25.6-25.6s11.469-25.6 25.6-25.6zM409.6 153.6h-307.2c-14.131 0-25.6-11.443-25.6-25.6s11.469-25.6 25.6-25.6h307.2c14.157 0 25.6 11.443 25.6 25.6s-11.443 25.6-25.6 25.6z" />
<glyph unicode="&#xe603;" d="M64 362.667h384q8.834 0 15.084-6.25t6.25-15.083-6.25-15.084-15.084-6.25h-384q-8.834 0-15.084 6.25t-6.25 15.084 6.25 15.083 15.084 6.25zM64 106.667h384q8.834 0 15.084-6.25t6.25-15.084-6.25-15.084-15.084-6.25h-384q-8.834 0-15.084 6.25t-6.25 15.084 6.25 15.084 15.084 6.25zM64 234.667h384q8.834 0 15.084-6.25t6.25-15.084-6.25-15.084-15.084-6.25h-384q-8.834 0-15.084 6.25t-6.25 15.084 6.25 15.084 15.084 6.25z" />
<glyph unicode="&#xe604;" d="M64 85.333h384v42.666h-384v-42.666zM64 192h384v42.667h-384v-42.667zM64 341.333v-42.667h384v42.667h-384z" />
<glyph unicode="&#xe605;" d="M497.341 335.053c2.954 2.949 4.418 6.815 4.418 10.675s-1.464 7.731-4.418 10.675c-5.898 5.898-15.452 5.898-21.346 0l-219.996-219.986-220.001 219.986c-5.883 5.898-15.437 5.898-21.346 0-5.888-5.898-5.888-15.452 0-21.351l230.682-230.656c5.888-5.898 15.437-5.898 21.351 0l230.656 230.656z" />
<glyph unicode="&#xe606;" d="M255.998 96.443l-253.424 253.425 14.482 14.481 253.424-253.425-14.482-14.481zM241.519 110.925l253.421 253.421 14.481-14.482-253.421-253.421-14.482 14.481z" />
<glyph unicode="&#xe607;" d="M256.358 231.706c-0.128 0-0.256 0-0.358 0-0.154 0-0.256 0-0.384 0-30.489 0-57.369 7.731-73.267-6.887-9.523-8.755-13.517-19.277-13.517-30.618 0-47.437 37.99-53.248 86.784-53.248h0.717c48.793 0 86.784 5.837 86.784 53.248 0 11.341-3.993 21.863-13.543 30.618-15.821 14.618-42.726 6.887-73.216 6.887zM214.887 166.912c-9.293 0-16.819 10.419-16.819 23.271s7.526 23.27 16.819 23.27 16.819-10.419 16.819-23.27-7.552-23.27-16.819-23.27zM297.088 166.912c-9.241 0-16.793 10.419-16.793 23.271s7.526 23.27 16.793 23.27c9.293 0 16.845-10.419 16.845-23.27s-7.526-23.27-16.845-23.27zM256 476.16c-135.731 0-245.76-110.029-245.76-245.76s110.029-245.76 245.76-245.76c135.68 0 245.735 110.029 245.735 245.76s-110.029 245.76-245.735 245.76zM278.4 129.536c-4.403 0-13.159 0-22.4-0.026-9.267 0.026-18.023 0.026-22.4 0.026-19.482 0-96.589 1.51-96.589 94.439 0 21.376 7.322 37.018 19.328 50.048-1.92 4.736-2.023 31.591 8.192 57.242 0 0 23.45-2.56 58.88-26.88 7.424 2.048 19.994 3.072 32.589 3.072 12.544 0 25.139-1.024 32.589-3.072 35.456 24.32 58.855 26.88 58.855 26.88 10.189-25.677 10.137-52.531 8.192-57.242 12.007-13.030 19.353-28.672 19.353-50.048 0-92.954-77.082-94.438-96.589-94.438z" />
<glyph unicode="&#xe608;" d="M256 476.16c-135.731 0-245.76-110.029-245.76-245.76s110.029-245.76 245.76-245.76 245.76 110.029 245.76 245.76-110.003 245.76-245.76 245.76zM190.336 178.662c-28.032 0-50.739 23.142-50.739 51.738s22.707 51.738 50.739 51.738c28.032 0 50.765-23.143 50.765-51.738-0.025-28.595-22.733-51.738-50.765-51.738zM321.639 178.662c-28.058 0-50.765 23.142-50.765 51.738s22.707 51.738 50.765 51.738c28.007 0 50.739-23.143 50.739-51.738 0.026-28.595-22.733-51.738-50.739-51.738z" />
<glyph unicode="&#xe609;" d="M256 476.16c-135.731 0-245.76-110.029-245.76-245.76s110.029-245.76 245.76-245.76 245.76 110.029 245.76 245.76-110.029 245.76-245.76 245.76zM368.64 277.735c-13.005-74.675-85.709-137.882-107.546-152.32-21.863-14.413-41.805 5.811-49.049 21.069-8.269 17.433-33.101 111.975-39.603 119.783-6.502 7.859-25.984-7.808-25.984-7.808l-9.447 12.647c0 0 39.603 48.179 69.734 54.169 31.949 6.4 31.898-49.945 39.578-81.254 7.45-30.285 12.442-47.591 18.918-47.591 6.502 0 18.918 16.87 32.512 42.752 13.619 25.933-0.563 48.794-27.187 32.537 10.599 64.998 111.104 80.666 98.074 6.016z" />
<glyph unicode="&#xe60a;" d="M256 476.16c-135.731 0-245.76-110.029-245.76-245.76s110.029-245.76 245.76-245.76 245.76 110.029 245.76 245.76-110.029 245.76-245.76 245.76zM355.942 274.816c0.103-2.074 0.154-4.173 0.154-6.272 0-63.949-48.691-137.702-137.728-137.702-27.315 0-52.787 7.987-74.189 21.76 3.789-0.461 7.655-0.666 11.546-0.666 22.681 0 43.546 7.731 60.135 20.736-21.171 0.384-39.066 14.387-45.235 33.587 2.944-0.563 5.99-0.87 9.088-0.87 4.429 0 8.704 0.589 12.749 1.69-22.119 4.454-38.835 24.013-38.835 47.463 0 0.205 0 0.41 0.025 0.589 6.528-3.609 14.003-5.786 21.913-6.042-12.953 8.678-21.504 23.475-21.504 40.294 0 8.883 2.381 17.203 6.554 24.345 23.859-29.312 59.546-48.589 99.763-50.585-0.819 3.533-1.255 7.219-1.255 11.034 0 26.727 21.683 48.41 48.409 48.41 13.926 0 26.496-5.863 35.328-15.283 11.034 2.15 21.401 6.169 30.745 11.725-3.635-11.29-11.289-20.787-21.299-26.778 9.805 1.178 19.123 3.763 27.801 7.629-6.477-9.702-14.72-18.227-24.166-25.063z" />
<glyph unicode="&#xe60b;" d="M256 476.16c-135.731 0-245.76-110.029-245.76-245.76s110.029-245.76 245.76-245.76 245.76 110.029 245.76 245.76-110.029 245.76-245.76 245.76zM314.189 306.329h-36.941c-4.352 0-9.216-5.76-9.216-13.415v-26.675h46.183v-38.042h-46.183v-114.202h-43.623v114.202h-39.526v38.016h39.526v22.375c0 32.103 22.272 58.189 52.839 58.189h36.941v-40.448z" />
<glyph unicode="&#xe60c;" d="M232.883 299.904c-6.169 21.76-16.154 28.185-31.693 28.185-1.664 0-3.353-0.231-4.966-0.666-6.758-1.92-12.083-7.552-15.053-15.872-3.047-8.448-3.251-17.28-0.589-27.315 4.71-17.92 17.459-30.95 30.336-30.95 1.664 0 3.353 0.231 4.966 0.666 14.003 3.968 22.81 25.421 16.999 45.952zM256 476.16c-135.731 0-245.76-110.029-245.76-245.76s110.029-245.76 245.76-245.76c135.757 0 245.76 110.029 245.76 245.76s-110.003 245.76-245.76 245.76zM241.843 124.877c-15.463-7.501-32.077-8.294-38.502-8.294-1.229 0-1.92 0.026-2.023 0.026 0 0-0.487 0-1.255 0-10.035 0-59.981 2.304-59.981 47.795 0 44.697 54.375 48.179 71.040 48.179h0.461c-9.6 12.851-7.603 25.805-7.603 25.805-0.845-0.051-2.099-0.102-3.609-0.102-6.298 0-18.406 0.999-28.8 7.731-12.723 8.167-19.174 22.118-19.174 41.446 0 54.553 59.546 56.755 60.16 56.781h59.469v-1.306c0-6.656-11.93-7.936-20.096-9.063-2.765-0.384-8.294-0.947-9.881-1.741 15.078-8.038 17.511-20.711 17.511-39.552 0-21.427-8.397-32.768-17.305-40.755-5.504-4.915-9.856-8.832-9.856-14.003 0-5.069 5.939-10.291 12.851-16.359 11.289-9.933 26.777-23.526 26.777-46.361 0-23.603-10.163-40.499-30.183-50.227zM371.891 230.631h-38.81v-38.81h-24.576v38.81h-38.81v24.576h38.81v38.784h24.576v-38.809h38.81v-24.55zM210.509 200.934c-1.331 0-2.662-0.051-3.994-0.154-11.367-0.819-21.863-5.094-29.465-12.007-7.526-6.81-11.341-15.385-10.803-24.089 1.126-18.176 20.685-28.851 44.391-27.136 23.373 1.69 38.938 15.13 37.786 33.331-1.101 17.127-15.975 30.055-37.913 30.055z" />
<glyph unicode="&#xe60d;" d="M256 476.16c-135.731 0-245.76-110.029-245.76-245.76s110.029-245.76 245.76-245.76 245.76 110.029 245.76 245.76-110.029 245.76-245.76 245.76zM272.793 172.135c-15.744 1.229-22.349 9.037-34.688 16.538-6.81-35.635-15.078-69.786-39.68-87.603-7.577 53.837 11.161 94.259 19.84 137.165-14.822 24.934 1.792 75.162 33.049 62.797 38.477-15.232-33.331-92.775 14.873-102.477 50.329-10.112 70.861 87.322 39.654 118.989-45.082 45.747-131.226 1.049-120.627-64.461 2.585-16.025 19.097-20.864 6.605-42.983-28.851 6.4-37.478 29.159-36.352 59.495 1.792 49.689 44.621 84.454 87.577 89.293 54.349 6.067 105.344-19.942 112.409-71.066 7.911-57.728-24.55-120.192-82.663-115.687z" />
<glyph unicode="&#xe60e;" d="M256 476.16c-135.731 0-245.76-110.029-245.76-245.76s110.029-245.76 245.76-245.76c135.731 0 245.735 110.029 245.735 245.76s-109.978 245.76-245.735 245.76zM321.945 124.365c-10.061-4.787-19.149-8.141-27.238-10.087-8.141-1.92-16.998-2.893-26.445-2.893-10.752 0-20.25 1.382-28.518 4.122-8.243 2.739-15.309 6.681-21.145 11.75s-9.881 10.496-12.135 16.231-3.379 14.029-3.379 24.909v83.482h-25.984v33.664c9.216 3.046 17.152 7.399 23.731 13.082 6.579 5.657 11.879 12.467 15.846 20.429 3.994 7.936 6.758 18.073 8.243 30.336h33.433v-60.186h55.782v-37.35h-55.783v-61.031c0-13.798 0.717-22.656 2.176-26.573s4.122-7.040 8.038-9.37c5.223-3.149 11.187-4.762 17.869-4.762 11.904 0 23.757 3.917 35.507 11.776v-37.529z" />
<glyph unicode="&#xe60f;" d="M256 476.16c-135.731 0-245.76-110.029-245.76-245.76s110.029-245.76 245.76-245.76 245.76 110.029 245.76 245.76-110.029 245.76-245.76 245.76zM195.84 128.537h-49.767v160.128h49.767v-160.128zM170.649 308.327c-15.719 0-25.881 11.161-25.881 24.909 0 14.080 10.47 24.883 26.522 24.883s25.881-10.803 26.189-24.883c0.025-13.773-10.137-24.909-26.829-24.909zM377.575 128.537h-49.741v88.755c0 20.634-7.219 34.688-25.216 34.688-13.747 0-21.913-9.498-25.549-18.662-1.305-3.251-1.639-7.859-1.639-12.416v-92.339h-49.792v109.056c0 19.968-0.64 36.685-1.305 51.072h43.213l2.304-22.246h0.973c6.553 10.471 22.605 25.856 49.459 25.856 32.743 0 57.293-21.913 57.293-69.069v-94.695z" />
<glyph unicode="&#xe610;" d="M262.63 230.835c0.87 0.281 1.741 0.537 2.663 0.819-2.125 4.762-4.48 9.651-7.142 14.925-48.128-14.233-94.208-14.387-102.425-14.285-0.051-0.614-0.077-1.28-0.077-1.894 0-24.192 8.704-47.463 24.525-65.715 5.299 8.525 33.229 50.227 82.458 66.151zM321.408 306.457c-18.202 15.667-41.37 24.269-65.408 24.269-7.245 0-14.541-0.793-21.734-2.381 5.222-7.066 21.299-29.363 36.378-56.909 32.819 12.595 47.667 30.797 50.765 35.021zM195.174 150.707c17.638-13.543 38.656-20.659 60.826-20.659 13.261 0 26.112 2.56 38.272 7.552-1.69 9.753-7.552 39.424-21.043 74.778-54.323-19.2-74.803-55.322-78.055-61.671zM248.448 264.576c-15.565 27.443-31.769 50.048-36.198 56.115-27.315-13.287-47.411-38.579-54.093-68.096h0.41c10.393 0 47.309 0.87 89.881 11.981zM294.759 217.651c11.904-33.050 17.408-60.57 18.944-69.351 21.811 15.36 36.711 38.938 41.19 65.075-4.454 1.331-20.505 5.683-40.755 5.683-6.579 0-13.133-0.486-19.379-1.408zM256 476.16c-135.731 0-245.76-110.029-245.76-245.76s110.029-245.76 245.76-245.76c135.757 0 245.76 110.029 245.76 245.76s-110.003 245.76-245.76 245.76zM256 110.131c-66.304 0-120.269 53.939-120.269 120.269s53.939 120.269 120.269 120.269c66.355 0 120.32-53.939 120.32-120.269s-53.965-120.269-120.32-120.269zM279.603 254.055c2.227-4.557 4.275-9.113 6.195-13.568 0.589-1.459 1.255-2.893 1.843-4.352 7.091 0.845 14.643 1.28 22.553 1.28 21.863 0 40.038-3.2 46.106-4.403-0.538 21.76-8.243 42.906-21.811 59.878-4.096-5.299-20.941-24.653-54.887-38.835z" />
<glyph unicode="&#xe611;" d="M256 476.16c-135.731 0-245.76-110.029-245.76-245.76s110.029-245.76 245.76-245.76 245.76 110.029 245.76 245.76-110.029 245.76-245.76 245.76zM256 287.104c-7.501 0-13.594-6.093-13.594-13.568v-81.101c0-31.821-25.959-57.754-57.882-57.754-31.898 0-57.882 25.933-57.882 57.754v33.946h44.263v-33.946c0-7.475 6.093-13.543 13.594-13.543s13.594 6.067 13.594 13.543v81.101c0.025 31.846 26.010 57.728 57.907 57.728s57.882-25.907 57.882-57.754v-15.462l-26.624-8.525-17.639 8.525v15.488c-0.026 7.475-6.118 13.568-13.619 13.568zM385.357 192.435c0-31.821-25.984-57.753-57.882-57.753-31.923 0-57.882 25.933-57.882 57.754v34.637l17.639-8.525 26.624 8.525v-34.663c0-7.475 6.093-13.543 13.594-13.543s13.568 6.067 13.568 13.543v33.946h44.288v-33.92z" />
<glyph unicode="&#xe612;" d="M66.099 343.014c-6.938 6.861-18.151 6.861-25.063 0-6.912-6.835-6.912-17.946 0-24.807l202.445-200.448c6.938-6.861 18.125-6.861 25.063 0l202.445 200.448c6.912 6.861 6.938 17.945 0 24.806s-18.176 6.861-25.063 0.026l-189.927-182.81-189.901 182.784z" />
<glyph unicode="&#xe613;" d="M445.901 117.785c6.938-6.861 18.151-6.861 25.063 0 6.938 6.861 6.938 17.945 0 24.807l-202.445 200.448c-6.912 6.861-18.125 6.861-25.037 0l-202.445-200.448c-6.912-6.861-6.938-17.945 0-24.807s18.125-6.861 25.063 0l189.901 182.81 189.901-182.81z" />
<glyph unicode="&#xe614;" d="M256 476.16c-135.731 0-245.76-110.029-245.76-245.76s110.029-245.76 245.76-245.76 245.76 110.029 245.76 245.76-110.029 245.76-245.76 245.76zM323.712 157.952c-51.251 0-69.043 23.296-78.49 52.275l-9.523 29.875c-7.091 21.786-12.826 37.555-38.886 37.555-18.073 0-41.625-11.853-41.625-48.589 0-28.672 19.712-46.592 40.141-46.592 17.357 0 27.75 9.753 33.178 14.618l9.063-25.882c-6.169-4.48-18.791-13.261-43.699-13.261-34.432 0-67.2 24.499-67.2 69.888 0 47.206 34.125 74.983 69.273 74.983 39.398 0 54.067-14.362 66.535-53.171l9.779-29.85c7.117-21.837 22.144-37.657 52.070-37.657 20.147 0 30.822 4.505 30.822 15.514 0 8.678-5.043 14.95-20.147 18.534l-20.147 4.787c-24.601 5.965-34.381 18.816-34.381 39.142 0 32.538 26.087 42.701 52.762 42.701 30.233 0 48.589-11.059 50.944-37.913l-29.619-3.61c-1.178 12.851-8.883 18.227-23.117 18.227-13.031 0-21.017-5.965-21.017-16.128 0-8.986 3.84-14.362 16.896-17.331l18.944-4.173c25.472-5.965 39.117-18.535 39.117-42.727-0.026-29.875-24.935-41.216-61.671-41.216z" />
<glyph unicode="&#xe615;" d="M256 476.16c-135.731 0-245.76-110.029-245.76-245.76s110.029-245.76 245.76-245.76 245.76 110.029 245.76 245.76-110.029 245.76-245.76 245.76zM343.117 243.635c0.563-4.327 0.87-8.755 0.87-13.235 0-55.731-44.595-100.89-99.635-100.89-54.989 0-99.609 45.184-99.609 100.89s44.595 100.864 99.609 100.864c7.911 0 15.565-0.973 22.938-2.714v-57.446c-11.648 4.25-25.959 3.609-39.45-2.867-24.371-11.776-36.762-38.246-27.623-59.162 9.139-20.864 36.301-28.262 60.672-16.512 16.793 8.089 31.616 27.623 31.616 52.096v74.061c2.099-1.178 4.122-2.432 6.118-3.738 18.944-11.904 47.053-27.801 79.923-29.465 12.825-0.666-5.017-32.896-35.43-41.882z" />
<glyph unicode="&#xe616;" d="M311.399 234.163c-5.888 3.942-13.159 7.347-21.504 10.137-8.294 2.714-17.639 5.248-27.827 7.475-8.038 1.92-13.901 3.405-17.408 4.403-3.405 0.973-6.81 2.329-10.112 4.045-3.2 1.639-5.734 3.61-7.501 5.863-1.69 2.125-2.509 4.557-2.509 7.526 0 4.813 2.56 8.883 7.808 12.416 5.453 3.686 12.8 5.529 21.811 5.529 9.702 0 16.768-1.664 21.017-4.966 4.352-3.43 8.166-8.243 11.264-14.387 2.739-4.813 5.146-8.141 7.552-10.291 2.509-2.304 6.144-3.481 10.803-3.481 5.146 0 9.498 1.869 12.954 5.555 3.405 3.687 5.146 7.885 5.146 12.493 0 4.813-1.357 9.779-3.942 14.771-2.56 4.915-6.707 9.702-12.211 14.157-5.504 4.403-12.493 7.987-20.787 10.649-8.243 2.663-18.125 3.968-29.363 3.968-14.054 0-26.471-1.997-36.915-5.965-10.624-4.045-18.841-9.907-24.474-17.459-5.657-7.603-8.525-16.435-8.525-26.215 0-10.24 2.739-18.995 8.141-25.933 5.325-6.887 12.595-12.339 21.607-16.307 8.832-3.84 19.917-7.271 32.973-10.138 9.6-2.048 17.382-4.019 23.091-5.863 5.478-1.741 10.035-4.327 13.414-7.629 3.251-3.149 4.839-7.142 4.839-12.262 0-6.451-3.046-11.725-9.319-16.154-6.4-4.505-14.925-6.784-25.344-6.784-7.552 0-13.721 1.127-18.279 3.353-4.531 2.202-8.089 5.017-10.547 8.371-2.56 3.507-4.992 7.936-7.219 13.209-1.997 4.813-4.48 8.55-7.373 11.085-3.047 2.637-6.758 3.968-11.085 3.968-5.274 0-9.677-1.69-13.133-5.017-3.482-3.379-5.248-7.475-5.248-12.237 0-7.577 2.714-15.462 8.038-23.373 5.299-7.885 12.262-14.233 20.736-18.918 11.827-6.451 26.982-9.728 45.030-9.728 15.053 0 28.262 2.406 39.322 7.091 11.161 4.787 19.738 11.495 25.549 19.942 5.863 8.525 8.807 18.253 8.807 28.902 0 8.935-1.69 16.563-5.094 22.81-3.379 6.17-8.141 11.367-14.183 15.386zM256 476.16c-135.731 0-245.76-110.029-245.76-245.76s110.029-245.76 245.76-245.76c135.757 0 245.76 110.029 245.76 245.76s-110.003 245.76-245.76 245.76zM314.906 92.774c-12.442 0-24.192 3.226-34.483 8.909-7.475-1.433-15.155-2.176-23.040-2.176-69.478 0-125.824 57.984-125.824 129.459 0 8.935 0.87 17.613 2.56 26.035-6.374 11.136-10.035 24.089-10.035 37.939 0 41.447 32.666 75.085 72.96 75.085 14.285 0 27.571-4.224 38.835-11.52 6.963 1.255 14.157 1.894 21.504 1.894 69.478 0 125.824-57.984 125.824-129.459 0-9.523-0.998-18.816-2.893-27.776 4.839-10.061 7.552-21.351 7.552-33.357-0.026-41.421-32.666-75.034-72.96-75.034z" />
<glyph unicode="&#xe617;" d="M389.12 230.4c0-73.523-59.623-133.12-133.12-133.12-73.523 0-133.12 59.597-133.12 133.12 0 8.755 0.871 17.305 2.509 25.6h-89.549v-176.947c0-37.99 30.771-68.813 68.813-68.813h302.694c37.99 0 68.813 30.797 68.813 68.813v176.947h-89.523c1.613-8.294 2.483-16.845 2.483-25.6zM407.347 450.56h-302.695c-38.016 0-68.813-30.822-68.813-68.813v-74.547h111.462c24.089 34.048 63.795 56.32 108.697 56.32s84.608-22.272 108.697-56.32h111.463v74.547c0 37.99-30.822 68.813-68.813 68.813zM441.011 365.568c0-6.784-5.529-12.288-12.288-12.288h-36.839c-6.759 0-12.288 5.529-12.288 12.288v36.864c0 6.784 5.555 12.288 12.288 12.288h36.839c6.784 0 12.288-5.529 12.288-12.288v-36.864zM337.92 230.4c0 45.261-36.685 81.92-81.92 81.92s-81.92-36.659-81.92-81.92 36.685-81.92 81.92-81.92 81.92 36.659 81.92 81.92z" />
<glyph unicode="&#xe618;" d="M256 486.4l-117.76-186.88h235.495l-117.735 186.88zM256.026-25.6l117.734 186.88-235.52 0.026 117.785-186.906z" />
<glyph unicode="&#xe619;" d="M427.008 252.416h-342.016c0 57.856 47.104 104.96 104.96 104.96h29.184v114.688h73.728v-115.2h29.184c57.856 0 104.96-46.592 104.96-104.448zM273.408 210.432v0c0 9.728-7.68 17.408-17.408 17.408s-17.408-7.68-17.408-17.408c0-9.728 7.68-17.408 17.408-17.408s17.408 7.68 17.408 17.408zM273.408 65.536v0c0 10.24-7.68 17.408-17.408 17.408s-17.408-8.192-17.408-17.408c0-9.728 7.68-17.408 17.408-17.408 9.728-0.512 17.408 7.68 17.408 17.408zM273.408 137.728v0c0 10.24-7.68 17.408-17.408 17.408s-17.408-8.192-17.408-17.408c0-9.728 7.68-17.408 17.408-17.408s17.408 7.68 17.408 17.408zM437.248 62.464c9.216 3.584 13.312 13.824 9.728 22.528v0.512c-3.584 9.216-13.824 13.312-22.528 9.728-9.216-3.584-13.312-13.824-9.728-23.040 2.56-6.656 9.216-10.752 16.384-10.752 1.536-0.512 3.584 0 6.144 1.024zM411.648 127.488c9.216 2.56 14.336 12.288 11.776 21.504v0.512c-2.56 9.216-12.288 14.336-21.504 11.776s-14.336-12.8-11.776-22.016c2.048-7.68 9.216-12.288 16.896-12.288 1.024 0 2.56 0 4.608 0.512zM388.608 194.048c9.216 3.584 13.312 13.824 9.728 22.528v0.512c-3.584 8.704-13.824 13.312-22.528 9.728-9.216-3.584-13.312-13.824-9.728-23.040 2.56-6.656 9.216-10.752 16.384-10.752 2.048 0 4.096 0 6.144 1.024zM345.6 54.272c9.728 1.024 16.384 9.728 15.872 18.944v0.512c-1.024 9.728-9.216 16.384-18.944 15.36s-16.384-9.728-15.872-19.456c1.024-9.216 8.704-15.872 17.408-15.872 0.512 0.512 1.024 0.512 1.536 0.512zM336.896 123.904c9.216 2.048 15.36 11.264 13.824 20.48v0.512c-2.048 9.216-11.264 15.36-20.48 13.312s-15.36-11.264-13.824-20.48c1.536-8.192 8.704-13.824 16.896-13.824 1.024-0.512 2.048-0.512 3.584 0zM325.632 193.024c9.728 2.048 15.872 11.264 13.824 20.48v0.512c-2.048 9.216-11.264 15.36-20.48 13.312-9.728-2.048-15.36-11.264-13.824-20.48 1.536-8.192 8.704-13.824 16.896-13.824 1.536 0 2.56 0 3.584 0zM97.792 72.192v0c3.584 9.216-0.512 19.456-9.728 23.040-8.704 3.584-18.944-1.024-22.528-9.728s0.512-18.944 9.728-22.528c2.048-1.024 4.096-1.024 6.656-1.024 6.656-1.024 13.312 3.072 15.872 10.24zM122.368 139.264v0c3.072 9.728-2.56 18.944-11.776 22.016s-18.944-2.56-22.016-11.776c-2.56-9.216 2.56-18.944 11.776-21.504 1.536-0.512 3.584-0.512 5.12-0.512 7.68-0.512 14.848 4.096 16.896 11.776zM145.92 203.776v0c3.584 9.216-0.512 19.456-9.728 23.040-8.704 3.584-18.944-1.024-22.528-9.728s0.512-18.944 9.728-22.528c2.048-1.024 4.096-1.024 6.656-1.024 6.656-0.512 13.312 3.584 15.872 10.24zM185.344 69.632v0c1.024 9.728-6.144 18.432-15.872 19.456s-17.92-6.144-18.944-15.872c-1.024-9.728 6.144-17.92 15.872-18.944 0.512 0 1.024 0 1.536 0 8.704 0 16.384 6.656 17.408 15.36zM196.096 137.728v0c2.048 9.728-4.096 18.944-13.824 20.48-9.216 2.048-18.432-4.608-20.48-13.824s4.096-18.432 13.824-20.48c1.024 0 2.048-0.512 3.584-0.512 7.68 0 14.848 5.632 16.896 14.336zM206.848 206.848v0c2.048 9.728-4.096 18.944-13.824 20.48-9.216 2.048-18.432-4.608-20.48-13.824s4.096-18.432 13.824-20.48c1.024 0 2.048-0.512 3.584-0.512 7.68 0.512 14.848 6.144 16.896 14.336z" />
<glyph unicode="&#xe61a;" d="M257.024 315.392c-131.072 0-239.616-45.056-245.76-124.928h489.472c-5.12 79.872-111.616 124.928-243.712 124.928zM501.76 176.128h-491.52v-124.928h58.368l2.048 55.296 364.544 1.024 2.048-56.32h64.512zM68.608 440.32v-156.672l36.864 21.504c4.096 48.128 28.672 109.568 156.672 106.496 102.4-2.048 142.336-59.392 145.408-106.496l35.84-21.504v155.648z" />
<glyph unicode="&#xe61b;" d="M384 452.096h-256l-128-221.696 128-221.696h256l128 221.696-128 221.696zM256 128c-56.32 0-102.4 46.080-102.4 102.4s46.080 102.4 102.4 102.4 102.4-46.080 102.4-102.4-46.080-102.4-102.4-102.4z" />
<glyph unicode="&#xe61c;" d="M457.6 313.6h-35.2c-1.6 0-3.2-1.6-4.8-1.6-11.2 17.6-24 33.6-32 41.6-32 32-224 32-256 0-9.6-9.6-20.8-24-32-41.6-1.6 1.6-3.2 1.6-4.8 1.6h-38.4c-4.8 0-8-3.2-8-8v-16c0-4.8 3.2-8 8-9.6l22.4-4.8c-19.2-41.6-30.4-92.8-12.8-145.6v-30.4c0-9.6 1.6-16 4.8-16h41.6c3.2 0 4.8 6.4 4.8 16v25.6c36.8-3.2 89.6-8 140.8-8s104 3.2 140.8 8v-25.6c0-9.6 1.6-16 4.8-16h41.6c3.2 0 4.8 6.4 4.8 16v30.4c17.6 52.8 6.4 104-12.8 145.6l22.4 4.8c4.8 1.6 8 4.8 8 9.6v16c0 4.8-3.2 8-8 8zM113.6 184c-16 0-28.8 12.8-28.8 28.8s12.8 28.8 28.8 28.8 28.8-12.8 28.8-28.8-12.8-28.8-28.8-28.8zM89.6 267.2c16 35.2 36.8 62.4 49.6 75.2 9.6 9.6 52.8 19.2 116.8 19.2s107.2-9.6 116.8-19.2c12.8-12.8 33.6-40 49.6-75.2-33.6-3.2-100.8 4.8-166.4 4.8s-132.8-9.6-166.4-4.8zM398.4 184c-16 0-28.8 12.8-28.8 28.8s12.8 28.8 28.8 28.8 28.8-12.8 28.8-28.8-12.8-28.8-28.8-28.8z" />
<glyph unicode="&#xe61d;" d="M260.608 476.16c-133.632 0-241.664-109.568-241.664-245.248s108.032-245.248 241.152-245.248 241.664 110.080 241.664 245.248c0 135.68-108.032 245.248-241.152 245.248zM260.608 81.92c-2.56 0-5.632 2.048-10.24 6.144-23.552 23.040-89.6 122.88-89.6 139.264l0.512 2.56c1.024 2.56 4.608 4.608 28.672 6.656 9.216 0.512 23.552 1.024 38.912 1.536v110.080c0 17.408 14.336 31.744 32.256 31.744s32.256-14.336 32.256-31.744v-110.592c33.792-1.024 62.976-3.072 66.048-7.168l1.024-2.56c-0.512-14.848-84.48-145.408-99.84-145.92z" />
<glyph unicode="&#xe61e;" d="M261.12 330.24c-28.16 0-50.176-22.016-50.176-50.176s22.016-50.176 50.176-50.176c28.16 0 50.176 22.016 50.176 51.712 0 23.552-19.968 48.64-50.176 48.64zM261.12 475.136c-133.12 0-241.152-109.568-241.152-245.248-0.512-135.68 107.52-245.248 241.152-245.248s241.152 109.568 241.152 245.248c0 135.168-108.032 245.248-241.152 245.248zM283.136 96.256c-6.656-8.704-11.776-16.384-22.016-16.384-10.752 0-15.36 8.192-22.016 16.384-13.824 17.408-78.336 116.736-78.336 183.808 0 54.272 42.496 100.352 100.352 100.352 57.344 0 100.352-46.592 100.352-100.352-0.512-67.072-65.536-167.424-78.336-183.808z" />
<glyph unicode="&#xe61f;" d="M279.552 1.536v56.832c33.28 5.632 58.88 17.92 75.264 36.352 16.896 18.432 25.088 40.96 25.088 66.56 0.512 25.6-6.656 46.592-20.992 63.488s-38.4 31.232-71.68 43.008c-24.576 8.704-42.496 16.384-53.248 24.064-10.752 7.168-16.384 15.36-15.872 24.064-0.512 8.192 3.072 15.872 10.24 22.016 7.168 6.656 19.968 9.728 37.888 10.24 22.016-0.512 39.424-3.072 52.736-7.168 13.312-4.608 23.552-8.704 30.208-12.288l16.384 63.488c-9.216 4.608-20.48 8.704-33.28 12.288-13.312 3.584-28.672 5.632-47.104 6.144v48.64h-54.784v-53.248c-30.72-6.144-54.272-17.92-70.656-35.328s-24.576-39.424-24.576-64.512c0.512-27.136 9.728-48.64 27.136-65.024s41.472-29.184 71.168-38.912c20.992-6.656 36.864-14.336 47.616-22.016 10.752-7.168 15.872-16.384 15.872-27.136-0.512-11.264-6.144-19.968-16.896-25.6-10.752-6.144-24.576-9.216-41.472-9.216-17.92 0-34.816 2.56-50.688 7.68-15.36 4.608-29.184 10.752-40.448 17.408l-16.384-65.536c9.728-6.144 23.040-11.264 39.424-15.872s34.304-7.168 53.248-8.192v-52.736l55.808 0.512z" />
<glyph unicode="&#xe620;" d="M358.4 153.6c-51.2-51.2-102.4-102.4-102.4-102.4l-102.4 102.4h204.8zM153.6 307.2c51.2 51.2 102.4 102.4 102.4 102.4l102.4-102.4h-204.8zM25.6 256h460.8v-51.2h-460.8v51.2z" />
<glyph unicode="&#xe621;" d="M332.8 332.8c51.2-51.2 102.4-102.4 102.4-102.4l-102.4-102.4v204.8zM179.2 128c-51.2 51.2-102.4 102.4-102.4 102.4l102.4 102.4v-204.8zM230.4 460.8h51.2v-460.8h-51.2v460.8z" />
<glyph unicode="&#xe622;" d="M367.104 47.616l-13.824 131.584 87.040 89.6-122.88 17.92-61.44 128-61.44-128-122.88-16.896 87.040-90.624-13.824-131.584 111.104 70.144c0 0 0 0 0 0l111.104-70.144z" />
<glyph unicode="&#xf0c9;" d="M438.857 102.4v-36.572q0-7.428-5.428-12.857t-12.857-5.428h-402.286q-7.428 0-12.857 5.428t-5.428 12.857v36.572q0 7.428 5.428 12.857t12.857 5.428h402.286q7.428 0 12.857-5.428t5.428-12.857zM438.857 248.686v-36.572q0-7.428-5.428-12.857t-12.857-5.428h-402.286q-7.428 0-12.857 5.428t-5.428 12.857v36.572q0 7.428 5.428 12.857t12.857 5.429h402.286q7.428 0 12.857-5.428t5.428-12.857zM438.857 394.971v-36.572q0-7.428-5.428-12.857t-12.857-5.428h-402.286q-7.428 0-12.857 5.428t-5.428 12.857v36.572q0 7.428 5.428 12.857t12.857 5.428h402.286q7.428 0 12.857-5.428t5.428-12.857z" />
</font></defs></svg>