<?xml version="1.0" standalone="no"?>
<!DOCTYPE svg PUBLIC "-//W3C//DTD SVG 1.1//EN" "http://www.w3.org/Graphics/SVG/1.1/DTD/svg11.dtd" >
<svg xmlns="http://www.w3.org/2000/svg">
<metadata>Generated by IcoMoon</metadata>
<defs>
<font id="icomoon" horiz-adv-x="1024">
<font-face units-per-em="1024" ascent="960" descent="-64" />
<missing-glyph horiz-adv-x="1024" />
<glyph unicode="&#x20;" d="" horiz-adv-x="512" />
<glyph unicode="&#xe600;" d="M26.139 843.047c0-24.466 9.515-47.364 26.767-64.616l329.878-329.878-329.878-329.878c-17.252-17.252-26.767-40.255-26.767-64.616 0-24.466 9.515-47.364 26.767-64.616 17.147-17.252 40.15-26.767 64.616-26.767s47.469 9.515 64.721 26.767l392.508 392.613c17.357 17.252 26.871 40.15 26.871 64.721v3.555c0 24.362-9.41 47.26-26.662 64.407l-392.717 392.822c-17.252 17.357-40.255 26.871-64.721 26.871s-47.364-9.41-64.512-26.662c-17.357-17.252-26.871-40.255-26.871-64.721z" horiz-adv-x="628" />
<glyph unicode="&#xe601;" d="M1566.415 960.566c-43.492 0-84.357-16.898-115.057-47.598l-586.9-586.967-586.967 587.001c-30.7 30.633-71.566 47.565-114.99 47.565s-84.256-16.898-114.956-47.598c-30.666-30.633-47.531-71.465-47.531-115.024s16.865-84.425 47.531-115.091l698.591-698.456c30.734-30.936 71.532-47.834 115.192-47.834h6.261c43.458 0 84.189 16.831 114.687 47.396l698.961 698.793c30.835 30.801 47.767 71.7 47.767 115.192s-16.797 84.256-47.363 114.822c-30.801 30.868-71.7 47.8-115.226 47.8z" horiz-adv-x="1729" />
<glyph unicode="&#xe602;" d="M162.595-63.434c43.476 0 84.338 16.889 115.065 47.563l586.877 586.986 586.986-586.986c30.728-30.619 71.589-47.563 115.011-47.563s84.229 16.889 114.956 47.617c30.619 30.619 47.508 71.426 47.508 115.011 0 43.531-16.889 84.447-47.563 115.12l-698.564 698.401c-30.728 30.946-71.534 47.835-115.174 47.835h-6.265c-43.476 0-84.229-16.835-114.738-47.345l-698.891-698.837c-30.837-30.782-47.78-71.698-47.78-115.174 0-43.531 16.78-84.283 47.345-114.793 30.782-30.891 71.698-47.835 115.229-47.835z" horiz-adv-x="1729" />
<glyph unicode="&#xe603;" d="M447.811 598.461c0-12.1-9.237-21.901-20.631-21.901h-128.545c-11.394 0-20.631 9.801-20.631 21.901s9.237 21.901 20.631 21.901h128.545c11.394 0 20.631-9.801 20.631-21.901zM506.727 481.312c0-12.1-8.813-21.901-19.703-21.901h-248.236c-10.87 0-19.703 9.801-19.703 21.901s8.833 21.901 19.703 21.901h248.236c10.89 0 19.703-9.801 19.703-21.901zM506.727 364.164c0-12.1-8.813-21.901-19.703-21.901h-248.236c-10.87 0-19.703 9.801-19.703 21.901s8.833 21.901 19.703 21.901h248.236c10.89 0 19.703-9.801 19.703-21.901zM965.368 364.164c0 12.1 9.237 21.901 20.631 21.901h128.545c11.394 0 20.631-9.801 20.631-21.901s-9.237-21.901-20.631-21.901h-128.545c-11.394 0-20.631 9.801-20.631 21.901zM906.452 481.312c0 12.1 8.813 21.901 19.703 21.901h248.236c10.87 0 19.703-9.801 19.703-21.901s-8.833-21.901-19.703-21.901h-248.236c-10.89 0-19.703 9.801-19.703 21.901zM906.452 598.461c0 12.1 8.813 21.901 19.703 21.901h248.236c10.87 0 19.703-9.801 19.703-21.901s-8.833-21.901-19.703-21.901h-248.236c-10.89 0-19.703 9.801-19.703 21.901zM1322.006 65.31h-383.618c-103.699 0-180.556-42.431-180.556-42.431v786.797c0 0-20.167 64.575 180.556 64.575h383.618v-808.941zM649.698 816.23v-786.797c0 0-76.857 42.431-180.535 42.431h-383.638v808.941h383.638c200.702 0 180.535-64.575 180.535-64.575zM1359.356 947.962h-418.849c-137.015 0-203.97-32.227-236.539-65.684-32.489 33.457-99.484 65.684-236.479 65.684h-418.849c-19.965 0-36.039-16.376-36.039-36.402v-870.45c0-20.006 16.073-36.341 36.039-36.341h418.849c88.412 0 176.704-37.813 177.591-42.431h0.524c17.949-13.411 18.070-13.169 36.018-13.169h47.937c18.271 0 19.179-0.262 35.474 16.819 2.904 4.981 94.261 38.781 175.473 38.781h418.849c20.006 0 36.119 16.335 36.119 36.341v870.47c0 20.006-16.113 36.381-36.119 36.381z" horiz-adv-x="1408" />
<glyph unicode="&#xe604;" d="M72.977-59.775c-14.005 2.36-21.433 5.173-31.749 12.020-13.571 9.008-33.271 32.576-35.194 42.105-6.056 30.008-6.595 38.408-3.732 58.107 3.619 24.903 10.605 38.751 27.712 54.929 14.637 13.843 32.606 22.796 52.189 26.003 19.514 3.196 1022.365 3.068 1039.241-0.132 30.454-5.775 58.833-26.33 72.321-52.382 6.293-12.154 6.606-14.316 6.655-45.939l0.051-33.185-8.053-14.963c-8.126-15.099-25.708-33.148-39.086-40.122-19.155-9.987-20.821-10.016-553.63-9.763-405.333 0.192-512.152 0.866-526.727 3.323zM74.961 351.644c-11.882 2.79-30.65 12.258-41.793 21.083-25.293 20.032-36.197 53.17-30.805 93.617 3.447 25.862 10.061 39.223 27.651 55.858 14.637 13.843 32.606 22.796 52.189 26.003 19.514 3.196 1022.365 3.068 1039.241-0.132 30.454-5.775 58.833-26.33 72.321-52.382 6.293-12.154 6.606-14.316 6.655-45.939l0.051-33.185-8.053-14.963c-8.537-15.863-26.008-33.388-40.816-40.943-23.979-12.233 3.357-11.668-551.805-11.411-300.532 0.139-519.483 1.138-524.837 2.395zM74.961 766.459c-11.882 2.79-30.65 12.258-41.793 21.083-25.318 20.052-36.221 53.223-30.77 93.617 1.583 11.733 4.99 25.485 7.571 30.559 5.752 11.308 23.467 30.56 34.259 37.229 19.378 11.976 2.216 11.619 558.404 11.619 533.149 0 527.796 0.089 550.449-9.177 12.734-5.209 32.459-24.989 40.596-40.71 6.398-12.36 6.694-14.386 6.743-46.113l0.051-33.185-8.053-14.963c-8.537-15.863-26.008-33.388-40.816-40.943-23.979-12.233 3.357-11.668-551.805-11.411-300.532 0.139-519.483 1.138-524.837 2.395zM80.593-60.7c-20.194 2.817-36.924 11.163-51.404 25.643-16.026 16.026-23.3 30.593-26.663 53.4-8.014 54.338 23.452 101.313 75.221 112.298 9.079 1.926 154.646 2.665 525.132 2.665 561.239 0 526.82 0.849 551.485-13.603 15.166-8.886 30.868-25.89 39.016-42.25 6.571-13.193 7.014-15.851 7.1-42.517 0.086-26.755-0.322-29.289-6.87-42.667-3.829-7.822-12.447-19.714-19.15-26.427-17.373-17.396-31.112-23.655-58.676-26.728-28.663-3.196-1012.213-3.019-1035.191 0.186zM67.172 356.263c-23.286 7.402-46.324 27.254-57.602 49.636-2.299 4.563-5.454 16.83-7.011 27.259-8.101 54.264 23.398 101.309 75.187 112.298 9.079 1.926 154.646 2.665 525.132 2.665 561.239 0 526.82 0.849 551.485-13.603 15.166-8.886 30.868-25.89 39.016-42.25 6.571-13.193 7.014-15.851 7.1-42.517 0.086-26.755-0.322-29.289-6.87-42.667-9.388-19.18-28.125-37.465-48.071-46.913l-16.056-7.606-523.852-0.473c-514.306-0.464-524.118-0.388-538.458 4.17zM67.172 771.078c-23.286 7.402-46.324 27.254-57.602 49.636-2.299 4.563-5.454 16.83-7.011 27.259-7.929 53.111 21.886 99.638 70.446 109.93 9.080 1.925 155.886 2.639 529.778 2.578 571.826-0.093 534.025 0.959 557.973-15.534 14.658-10.095 23.949-21.062 33.165-39.143 6.026-11.823 6.526-14.954 6.585-41.239 0.061-26.727-0.356-29.303-6.897-42.667-9.388-19.18-28.125-37.465-48.071-46.913l-16.056-7.606-523.852-0.473c-514.306-0.464-524.118-0.388-538.458 4.17zM68.456-57.806c-33.311 9.016-60.82 41.361-65.773 77.335-6.092 44.241 14.981 84.334 54.060 102.852l15.554 7.37 524.955 0.613c580.17 0.678 534.649 1.824 559.957-14.093 42.672-26.837 57.161-87.168 31.464-131.016-8.435-14.393-27.289-31.293-43.267-38.782l-13.554-6.353-526.222-0.446c-414.819-0.351-528.541 0.182-537.174 2.518zM76.095 355.047c-38.397 8.329-68.051 40.36-73.413 79.297-6.092 44.241 14.981 84.334 54.060 102.852l15.554 7.37 524.955 0.613c479.15 0.56 525.996 0.277 536.889-3.238 37.651-12.153 63.411-44.571 66.733-83.982 4.361-51.744-30.059-95.899-81.298-104.291-8.466-1.387-209.789-2.192-521.057-2.085-423.312 0.146-509.769 0.719-522.423 3.464zM76.095 769.862c-38.397 8.329-68.051 40.36-73.413 79.297-7.004 50.861 21.636 95.369 69.614 108.185 9.713 2.595 105.041 3.171 528.25 3.194 462.503 0.025 517.919-0.362 530.963-3.709 38.41-9.856 65.92-43.193 69.364-84.055 4.361-51.744-30.059-95.899-81.298-104.291-8.466-1.387-209.789-2.192-521.057-2.085-423.312 0.146-509.769 0.719-522.423 3.464zM72.296-57.74c-45.083 14.295-71.559 51.209-69.547 96.966 1.416 32.214 18.118 60.728 44.983 76.795 26.697 15.967-12.259 14.915 552.353 14.915 365.217 0 514.976-0.751 523.946-2.628 49.347-10.324 84.415-60.444 75.634-108.098-6.771-36.746-30.438-64.489-65.225-76.458-13.91-4.786-17.26-4.815-533.33-4.657-412.557 0.126-521.282 0.777-528.814 3.165zM75.25 356.325c-12.932 3.048-31.381 12.946-41.983 22.524-30.364 27.433-39.72 73.63-22.279 110.014 9.331 19.466 20.563 32.296 36.744 41.974 26.697 15.967-12.259 14.915 552.353 14.915 365.217 0 514.976-0.751 523.946-2.628 49.347-10.324 84.415-60.444 75.634-108.098-6.788-36.842-31.865-65.989-65.788-76.467-15.441-4.769-19.558-4.805-532.645-4.568-290.582 0.134-520.982 1.157-525.982 2.335zM75.25 771.139c-4.894 1.153-14.266 4.817-20.826 8.141-54.497 27.616-68.947 97.465-30.266 146.303 10.308 13.015 31.746 26.455 49.848 31.251 13.703 3.63 56.056 3.888 533.994 3.245l519.111-0.699 15.937-7.55c40.523-19.197 64.060-61.597 56.618-101.992-6.788-36.842-31.865-65.989-65.788-76.467-15.441-4.769-19.558-4.805-532.645-4.568-290.582 0.134-520.982 1.157-525.982 2.335zM69.859-55.426c-18.841 6.827-29.311 13.506-40.926 26.107-16.774 18.198-26.56 42.473-26.561 65.893-0.001 8.723 0.945 16.445 2.1 17.159s2.78 4.916 3.61 9.338c1.939 10.337 17.206 33.964 27.654 42.798 4.464 3.774 15.049 10.158 23.523 14.187l15.407 7.325h1052.444l13.622-5.501c15.637-6.315 37.16-24.848 45.591-39.259 3.14-5.367 7.965-18.341 10.723-28.83l5.014-19.071-5.031-18.854c-10.452-39.171-29.538-59.325-68.547-72.385-12.756-4.271-31.449-4.421-528.779-4.255l-515.556 0.172-14.289 5.178zM69.926 359.427c-14.496 4.601-24.425 10.392-35.811 20.887-19.515 17.988-31.745 45.315-31.745 70.932 0 8.802 0.946 16.588 2.102 17.302s2.78 4.916 3.61 9.338c1.939 10.337 17.206 33.964 27.654 42.798 4.464 3.774 15.049 10.158 23.523 14.187l15.407 7.325h1052.444l13.622-5.501c15.637-6.315 37.16-24.848 45.591-39.259 3.14-5.367 7.965-18.341 10.723-28.83l5.014-19.071-5.031-18.854c-8.809-33.011-24.471-52.846-52.141-66.031l-15.407-7.342-525.037-0.445c-418.774-0.355-526.956 0.164-534.519 2.565zM69.926 774.241c-14.496 4.601-24.425 10.392-35.811 20.887-19.515 17.988-31.745 45.315-31.745 70.932 0 8.802 0.946 16.588 2.102 17.302s2.78 4.916 3.61 9.338c1.937 10.326 17.215 33.98 27.579 42.701 4.422 3.721 15.541 10.638 24.708 15.372l16.668 8.607h522.9c398.336 0 524.256-0.669 528.593-2.81 3.131-1.545 10.724-4.937 16.874-7.536 13.247-5.599 33.191-23.573 41.034-36.98 3.077-5.26 7.851-18.145 10.608-28.634l5.014-19.071-5.031-18.854c-8.809-33.011-24.471-52.846-52.141-66.031l-15.407-7.342-525.037-0.445c-418.774-0.355-526.956 0.164-534.519 2.565zM85.333-58.693c0 1.304-2.093 2.37-4.652 2.37s-10.595 2.224-17.86 4.942c-24.503 9.168-49.908 38.479-54.784 63.206-0.835 4.237-2.452 7.704-3.593 7.704s-2.074 6.933-2.074 15.407c0 8.474 0.845 15.407 1.879 15.407s3.197 4.928 4.808 10.952c8.68 32.455 37.801 58.053 73.81 64.882 8.218 1.558 188.55 2.374 518.938 2.347 551.752-0.045 526.065 0.576 549.71-13.281 15.101-8.85 28.929-23.786 37.258-40.245 6.582-13.006 7.079-15.821 7.079-40.063 0-24.053-0.54-27.174-6.968-40.266-12.322-25.096-38.794-46.219-62.719-50.045-5.299-0.847-9.057-2.474-8.352-3.615 0.731-1.183-220.798-2.074-515.599-2.074-343.007 0-516.881 0.797-516.881 2.37zM73.539 359.921c-17.999 4.837-30.575 12.764-44.612 28.123-10.965 11.998-21.816 33.302-21.816 42.833 0 1.907-1.067 3.467-2.37 3.467-1.337 0-2.37 6.716-2.37 15.407 0 8.474 0.845 15.407 1.879 15.407s3.197 4.928 4.808 10.952c8.68 32.455 37.801 58.053 73.81 64.882 8.218 1.558 188.55 2.374 518.938 2.347 551.752-0.045 526.065 0.576 549.71-13.281 15.101-8.85 28.929-23.786 37.258-40.245 6.582-13.006 7.079-15.821 7.079-40.063 0-24.053-0.54-27.174-6.968-40.266-12.701-25.869-36.866-44.76-64.852-50.698-9.092-1.929-154.081-2.622-525.037-2.509-443.315 0.135-514.228 0.627-525.455 3.644zM73.539 774.736c-17.999 4.837-30.575 12.764-44.612 28.123-10.965 11.998-21.816 33.302-21.816 42.833 0 1.907-1.067 3.467-2.37 3.467-1.337 0-2.37 6.716-2.37 15.407 0 8.474 0.845 15.407 1.879 15.407s3.197 4.928 4.808 10.952c4.074 15.231 12.973 29.569 25.55 41.161 9.885 9.111 31.616 21.291 38.085 21.345 1.521 0.012 3.21 1.356 3.753 2.986 0.785 2.355 105.257 3.111 509.235 3.683 467.012 0.661 545.441 0.128 541.632-3.681-0.736-0.736 3.8-3.078 10.080-5.204 25.004-8.465 47.314-31.87 56.161-58.917 6.284-19.212 4.125-49.979-4.786-68.191-12.551-25.654-36.812-44.582-64.734-50.507-9.092-1.929-154.081-2.622-525.037-2.509-443.315 0.135-514.228 0.627-525.455 3.644zM343.301-59.286c142.534 0.338 375.067 0.338 516.741 0s25.055-0.614-259.153-0.614c-284.207 0-400.122 0.276-257.588 0.614zM72.296-53.010c-25.447 8.098-45.242 24.826-57.089 48.244-6.31 12.472-6.896 15.745-6.903 38.555-0.007 23.374 0.475 25.908 7.753 40.703 9.612 19.54 28.331 37.335 47.358 45.018l13.622 5.501h1050.074l15.883-7.525c71.078-33.673 70.971-131.117-0.182-166.074l-13.331-6.549-523.852-0.445c-418.544-0.355-525.758 0.162-533.333 2.572zM3.129 33.751c0 8.474 0.43 11.941 0.956 7.704s0.526-11.17 0-15.407c-0.526-4.237-0.956-0.77-0.956 7.704zM72.296 361.805c-25.447 8.098-45.242 24.826-57.089 48.244-6.31 12.472-6.896 15.745-6.903 38.555-0.007 23.374 0.475 25.908 7.753 40.703 9.612 19.54 28.331 37.335 47.358 45.018l13.622 5.501h1050.074l15.883-7.525c71.078-33.673 70.971-131.117-0.182-166.074l-13.331-6.549-523.852-0.445c-418.544-0.355-525.758 0.162-533.333 2.572zM3.129 448.566c0 8.474 0.43 11.941 0.956 7.704s0.526-11.17 0-15.407c-0.526-4.237-0.956-0.77-0.956 7.704zM72.296 776.62c-25.447 8.098-45.242 24.826-57.089 48.244-6.308 12.468-6.896 15.749-6.903 38.518-0.007 22.007 0.723 26.447 6.298 38.341 7.040 15.017 22.035 32.493 34.482 40.185 4.517 2.792 14.255 7.008 21.638 9.37s11.292 4.484 8.684 4.718c-2.607 0.233 0.059 1.278 5.926 2.322 12.723 2.264 1009.95 2.899 1028.641 0.655 9.48-1.138 11.697-2.038 8.296-3.368-4.111-1.608-3.964-1.834 1.285-1.984 10.106-0.287 34.897-13.604 46.005-24.711 44.918-44.918 31.47-119.265-26.748-147.867l-13.331-6.549-523.852-0.445c-418.544-0.355-525.758 0.162-533.333 2.572zM3.129 863.381c0 8.474 0.43 11.941 0.956 7.704s0.526-11.17 0-15.407c-0.526-4.237-0.956-0.77-0.956 7.704z" horiz-adv-x="1204" />
<glyph unicode="&#xe605;" d="M100.985 20.51h757.382v566.452l-378.367 269.542-379.015-269.559v-566.435zM906.577-63.436h-853.802c-27.181 0-52.777 18.899-52.777 46.097v635.043c0 18.848 12.491 36.025 29.43 44.273l428.111 293.604c13.65 6.646 30.010 6.646 43.66-0.017l428.554-293.604c16.888-8.265 29.601-25.426 29.601-44.256v-635.043c0-27.198-25.562-46.097-52.777-46.097zM420.954 3.47h117.448v286.549h-117.448v-286.549zM625.551-14.185c0-27.198-24.267-49.249-54.208-49.249h-183.33c-29.942 0-54.208 22.051-54.208 49.249v338.883c0 27.215 24.267 49.266 54.208 49.266h183.33c29.942 0 54.208-22.051 54.208-49.266v-338.883z" horiz-adv-x="959" />
<glyph unicode="&#xe606;" d="M371.57-62.518c-0.504 0.504-5.636 1.903-11.404 3.11-26.826 5.613-42.849 20.034-101.413 91.271-149.526 181.884-241.001 356.14-256.912 489.406-2.427 20.329-2.462 82.464-0.057 101.758 8.671 69.564 35.936 134.336 80.391 190.982 13.524 17.233 52.466 55.243 70.105 68.427 52.654 39.356 117.616 66.734 173.929 73.301 8.721 1.017 18.485 2.528 21.698 3.358 7.593 1.961 71.177 1.961 78.77 0 3.212-0.83 13.109-2.348 21.993-3.375 33.725-3.896 74.373-16.593 111.537-34.839 98.029-48.129 175.19-141.533 201.968-244.484 8.015-30.814 10.627-51.811 11.521-92.604 1.11-50.671-2.344-82.082-14.192-129.087-20.467-81.194-76.491-193.111-149.482-298.615-46.721-67.533-114.397-152.45-149.965-188.172-16.209-16.279-31.867-25.578-46.293-27.492-4.383-0.581-8.358-1.688-8.835-2.459-0.944-1.528-31.865-1.979-33.357-0.487zM396.851 46.128c11.17 11.997 36.367 41.874 57.104 67.708 122.32 152.394 200.839 299.517 219.204 410.73 14.798 89.611-13.001 179.895-76.015 246.879-39.133 41.599-94.612 72.595-150.612 84.147-95.918 19.787-194.322-9.713-263.647-79.038-67.35-67.35-96.777-160.305-80.636-254.717 20.202-118.168 106.93-274.606 242.030-436.566 28.595-34.281 42.065-48.839 44.051-47.611 0.825 0.51 4.659 4.32 8.521 8.468zM368.821 446.923c-13.752 2.165-34.241 9.404-45.031 15.911-23.132 13.949-38.932 31.030-50.32 54.397-9.777 20.064-13.245 35.154-13.178 57.34 0.167 55.017 33.93 101.548 87.055 119.979 11.974 4.154 17.144 4.999 34.29 5.603 40.358 1.422 67.67-9.241 96.189-37.553 12.755-12.662 15.72-16.724 22.995-31.496 4.594-9.328 9.557-22.047 11.029-28.266 3.535-14.93 3.539-43.254 0.008-57.947-11.452-47.657-46.527-83.091-94.663-95.634-11.189-2.915-36.822-4.151-48.375-2.332zM403.551 551.123c6.545 4.992 11.935 15.217 11.935 22.64 0 8.083-5.542 17.968-12.748 22.737-21.017 13.909-48.685-5.541-42.191-29.659 5.145-19.107 27.735-27.364 43.004-15.718z" horiz-adv-x="774" />
<glyph unicode="&#xe607;" d="M905.917 179.956c-6.795-20.385-13.59-39.265-49.812-75.505-33.577-33.577-70.629-56.797-123.952-56.797-32.972 0-72.151 8.87-120.563 29.618-126.787 54.342-271.694 199.249-271.694 199.249s-144.89 144.924-199.232 271.694c-54.325 126.804-27.162 190.172 27.18 244.514 36.222 36.222 55.103 43.035 75.505 49.812 11.532 3.838 19.434 6.951 26.229 6.951 7.538 0 13.745-3.786 22.062-14.489 15.717-20.212 101.025-148.624 115.445-169.804 12.846-18.863 8.368-32.609-14.316-44.522-31.692-16.598-83.216-49.933-70.975-72.445 14.368-26.402 140.394-149.402 140.394-149.402s123.001-126.061 149.402-140.412c2.317-1.279 4.737-1.867 7.262-1.867 21.906 0 50.279 44.418 65.183 72.825 7.521 14.368 15.786 21.422 25.641 21.422 5.706 0 11.947-2.369 18.881-7.106 21.18-14.42 149.593-99.728 169.822-115.445 20.368-15.82 15.647-23.998 7.538-48.291zM961.21 309.164c-15.163 11.792-62.123 43.553-143.455 98.051-14.817 9.907-26.384 17.67-31.52 21.163-24.189 16.495-49.968 24.88-76.56 24.88-20.229 0-67.102-5.775-102.668-54.204-22.909 22.2-48.74 47.98-71.528 71.304l-0.847 0.882-0.899 0.864c-23.341 22.788-49.103 48.637-71.304 71.528 32.107 23.583 45.282 51.887 50.573 73.102 5.101 20.489 9.146 61.5-21.267 106.126-3.475 5.083-11.169 16.616-21.059 31.347-54.55 81.436-86.346 128.447-98.172 143.645-34.684 44.66-75.125 54.066-102.927 54.066-22.736 0-40.977-6.19-54.29-10.72l-4.392-1.487c-32.315-10.737-65.529-24.552-115.514-74.554-96.478-96.512-112.004-210.038-48.896-357.314 60.359-140.861 204.696-287.514 220.965-303.767 16.253-16.253 162.923-160.589 303.784-220.965 59.495-25.485 112.143-37.9 160.917-37.9 73.742 0 137.974 28.39 196.396 86.795 49.951 49.951 63.765 83.165 74.554 115.566l1.47 4.34c8.213 24.189 33.231 97.775-43.363 157.252z" />
<glyph unicode="&#xe608;" d="M1404.211 863.058c-122.011 92.968-393.179 97.502-639.157 97.502s-517.146-4.534-639.157-97.502c-122.011-92.968-125.893-294.403-125.893-414.488s3.882-321.52 125.893-414.488c122.011-92.968 393.179-97.532 639.157-97.532v0.030c245.978 0 517.146 4.534 639.157 97.502s125.893 294.403 125.893 414.488c0 120.085-3.882 321.52-125.893 414.488zM1007.475 421.483l0.059-0.059-415.673-221.499c-2.223-1.63-4.653-2.904-7.261-3.912l-0.533-0.267-0.030 0.119c-3.349-1.215-6.935-1.986-10.728-1.986-17.633 0-31.947 14.314-31.947 31.947v446.465c0 17.633 14.314 31.947 31.947 31.947 4.979 0 9.661-1.245 13.84-3.26h0.030l420.326-225.351c9.069-5.631 15.174-15.618 15.174-27.058-0.030-11.469-6.135-21.427-15.203-27.087z" horiz-adv-x="1530" />
<glyph unicode="&#xe609;" d="M365.712 229.13l292.567-292.567 292.567 292.567h-585.134zM658.289 960.567l-292.567-292.567h585.134l-292.567 292.567zM0 375.417h1316.553v146.284h-1316.553v-146.284z" horiz-adv-x="1317" />
<glyph unicode="&#xe60a;" d="M449.662-55.882c-47.591 25.827-24.549 99.995 31.066 99.995 19.226 0 51.489-31.778 51.489-50.715 0-44.642-43.382-70.538-82.555-49.28zM244.832-49.66c-16.121 5.893-32.433 25.36-35.659 42.557-9.527 50.783 53.482 83.028 90.299 46.211 26.231-26.231 19.127-68.393-14.188-84.202-18.328-8.697-26.597-9.63-40.453-4.565zM669.558-45.585c-50.741 22.072-31.875 100.543 24.173 100.543 55.741 0 72.846-74.458 23.023-100.222-19.223-9.941-24.991-9.98-47.196-0.321zM15.173-23.926c-11.799 10.935-14.348 18.074-14.348 40.186 0 23.369 2.184 28.726 16.683 40.927 23.646 19.897 44.994 18.514 67.906-4.398 11.338-11.338 18.436-23.766 18.436-32.279 0-48.098-54.992-75.654-88.677-44.435zM867.986-21.373c-34.685 34.685-8.569 92.597 41.757 92.597 7.932 0 20.403-6.685 29.568-15.85 12.81-12.81 15.85-20.518 15.85-40.186 0-20.518-2.617-26.538-16.683-38.374-23.342-19.641-49.717-18.963-70.492 1.812zM439.62 135.876c-21.595 21.595-21.646 47.983-0.138 72.055 13.003 14.552 19.644 17.585 38.511 17.585s25.509-3.033 38.511-17.585c17.529-19.618 19.716-37.322 7.523-60.901-16.537-31.978-58.092-37.469-84.408-11.153zM249.107 141.16c-14.552 13.003-17.585 19.644-17.585 38.511s3.033 25.509 17.585 38.511c19.618 17.529 37.322 19.716 60.901 7.522 31.978-16.537 37.469-58.092 11.153-84.408-21.595-21.595-47.983-21.646-72.055-0.138zM634.825 141.298c-29.824 29.824-15.9 82.605 23.754 90.044 54.316 10.19 88.208-54.525 47.571-90.834-23.319-20.835-49.995-20.54-71.325 0.79zM82.161 134.7c-16.121 5.893-32.433 25.36-35.659 42.557-9.527 50.783 53.482 83.028 90.299 46.211 39.581-39.581-2.441-107.85-54.641-88.768zM829.227 139.055c-18.781 10.533-25.893 23.939-25.893 48.811 0 38.723 40.706 62.32 78.108 45.278 16.766-7.639 32.408-39.069 28.062-56.386-8.871-35.345-50.021-54.671-80.277-37.703zM116.317 312.536c-31.864 22.318-24.877 77.132 11.785 92.45 54.587 22.808 99.242-43.010 57.501-84.751-18.14-18.14-49.419-21.616-69.286-7.7zM273.565 312.536c-31.864 22.318-24.877 77.132 11.785 92.45 23.231 9.707 41.225 5.96 59.593-12.408 32.157-32.157 8.291-88.193-37.562-88.193-12.199 0-27.416 3.668-33.816 8.15zM439.62 320.236c-21.289 21.289-21.644 48.11-0.938 70.836 20.576 22.583 42.516 25.891 66.006 9.954 10.208-6.926 20.817-19.408 23.574-27.737 17.625-53.232-48.742-92.953-88.642-53.052zM612.187 318.074c-27.183 27.183-20.575 69.034 13.533 85.701 16.923 8.269 23.391 8.901 38.868 3.793 57.049-18.828 44.14-103.182-15.791-103.182-17.279 0-26.291 3.37-36.61 13.689zM768.562 320.16c-27.859 29.078-16.844 74.689 21.057 87.198 38.168 12.597 76.867-22.546 69.169-62.813-7.583-39.669-61.598-54.267-90.227-24.385zM94.282 488.888c-18.84 7.656-23.887 27.814-17.384 69.435 19.812 126.808 130.316 223.231 255.83 223.231h31.395v81.028c0 104.246-7.447 97.91 115.076 97.91 119.123 0 112.663 5.752 112.663-100.314v-78.624h31.296c39.286 0 94.885-15.177 129.33-35.303 69.050-40.346 121.428-122.881 125.482-197.728 3.754-69.311 46.984-62.315-392.761-63.556-220.782-0.623-383.768 1.012-390.927 3.921zM457.728-58.152c-19.161 5.388-33.958 27.348-33.958 50.397 0 7.557 7.070 21.653 15.712 31.325 30.736 34.4 83.201 17.546 90.781-29.161 2.621-16.153 0.606-21.985-12.369-35.787-17.814-18.951-35.195-23.796-60.166-16.774zM241.116-45.422c-9.499 4.059-21.245 15.063-26.1 24.453-26.763 51.753 43.091 101.442 84.457 60.077 21.324-21.324 21.684-48.276 0.938-70.299-18.359-19.49-36.691-23.889-59.295-14.23zM681.332-48.883c-42.207 13.724-54.72 58.088-24.818 87.99 20.541 20.541 47.168 21.438 69.848 2.354 30.379-25.562 23.914-71.954-12.127-87.012-10.45-4.366-19.688-7.695-20.529-7.398s-6.41 2.127-12.374 4.067zM25.226-30.674c-17.835 10.228-24.046 22.026-24.228 46.016-0.25 32.947 18.098 52.924 48.608 52.924 54.212 0 73.927-73.157 26.346-97.763-17.866-9.239-35.938-9.658-50.726-1.178zM879.845-29.656c-30.296 16.792-35.806 53.69-11.996 80.338 13.007 14.557 19.641 17.585 38.532 17.585 18.236 0 25.427-3.031 35.8-15.091 38.582-44.855-11.29-111.125-62.336-82.832zM449.526 125.882c-12.457 7.255-25.756 33.447-25.756 50.723 0 7.557 7.011 21.586 15.58 31.177 12.111 13.555 19.951 17.437 35.211 17.437 39.417 0 66.627-37.912 52.203-72.735-11.242-27.14-52.134-41.224-77.238-26.602zM249.837 140.508c-39.963 35.707-4.548 103.974 47.202 90.986 21.32-5.351 39.973-28.804 39.973-50.26 0-24.225-7.553-37.539-27.003-47.597-23.362-12.081-41.246-10.039-60.171 6.87zM634.825 141.298c-40.902 40.902 2.068 108.951 54.962 87.042 21.976-9.103 32.213-25.085 32.213-50.292 0-28.682-23.424-52.6-51.512-52.6-14.668 0-23.928 4.115-35.662 15.85zM84.19 134.51c-20.426 4.182-37.028 27.248-37.028 51.444 0 17.897 3.24 24.833 17.585 37.651 24.072 21.508 50.459 21.458 72.055-0.138 37.597-37.597 0.759-99.884-52.611-88.957zM832.523 139.456c-32.575 16.070-39.249 58.102-13.338 84.012 20.541 20.541 47.168 21.438 69.848 2.354 30.379-25.562 23.914-71.954-12.127-87.012-23.193-9.691-23.436-9.687-44.383 0.647zM113.33 318.074c-35.074 35.074-12.68 89.336 36.868 89.336 46.501 0 68.475-54.105 35.405-87.175-21.151-21.151-52.351-22.084-72.273-2.161zM269.972 318.681c-10.937 10.937-14.295 19.681-14.295 37.217 0 32.030 19.58 51.512 51.77 51.512 46.501 0 68.475-54.105 35.405-87.175-21.44-21.44-52.336-22.099-72.88-1.555zM441.695 317.472c-12.633 10.866-15.214 17.385-15.214 38.426s2.581 27.56 15.214 38.426c28.44 24.463 70.868 14.912 84.967-19.127 21.057-50.836-42.655-94.121-84.967-57.725zM613.968 318.424c-13.838 11.644-16.683 17.991-16.683 37.217 0 32.068 19.499 51.77 51.237 51.77 47.645 0 69.675-53.438 35.938-87.175-20.775-20.775-47.15-21.453-70.492-1.812zM770.384 320.236c-34.215 34.215-12.55 87.175 35.662 87.175s69.878-52.96 35.662-87.175c-21.875-21.876-49.449-21.876-71.325 0zM84.622 497.904c-7.47 7.47-8.719 16.74-6.777 50.287 7.315 126.354 126.278 233.362 259.434 233.362h26.845v78.624c0 107.313-6.838 101.528 117.374 99.304 86.672-1.552 95.667-2.623 102.679-12.227 5.784-7.922 7.686-29.72 7.686-88.113v-77.588h28.684c134.253 0 258.701-118.97 258.701-247.314 0-49.386 34.338-45.493-401.255-45.493-353.399 0-384.947 0.734-393.371 9.158zM438.951-42.394c-14.227 14.227-16.073 19.264-13.307 36.309 6.624 40.818 47.778 59.676 81.711 37.442 43.358-28.41 22.45-90.27-30.51-90.27-16.593 0-25.071 3.696-37.894 16.519zM232.123-41.927c-13.653 7.936-24.876 36.739-21.4 54.921 1.574 8.233 10.079 21.043 18.901 28.466 49.613 41.747 115.633-27.893 69.848-73.678-12.097-12.097-20.764-15.811-36.601-15.685-11.413 0.091-25.25 2.78-30.748 5.976zM654.702-31.385c-30.435 36.17-5.422 86.342 43.045 86.342 22.967 0 45.942-27.032 45.942-54.053 0-31.536-18.081-48.972-50.784-48.972-20.327 0-26.394 2.649-38.203 16.683zM16.676-21.373c-28.738 28.738-18.923 74.529 18.631 86.923 34.323 11.328 65.586-12.285 65.586-49.537 0-17.753-3.272-24.735-17.585-37.523-23.396-20.904-45.636-20.858-66.632 0.138zM878.304-27.939c-29.171 18.097-34.143 52.283-11.257 77.402 19.613 21.526 42.241 25.424 65.068 11.207 16.673-10.384 17.623-12.711 17.623-43.196 0-28.35-1.716-33.57-14.287-43.459-17.135-13.478-37.452-14.173-57.147-1.955zM450.274 128.157c-44.705 24.297-25.291 94.893 26.095 94.893 24.49 0 37.602-7.557 48.001-27.668 11.293-21.837 5.949-44.314-14.658-61.654-18.137-15.262-38.156-17.138-59.438-5.571zM263.035 130.825c-25.131 10.142-37.44 50.146-23.464 76.259 8.484 15.853 36.049 28.057 54.312 24.046 19.194-4.216 43.13-31.358 43.13-48.907 0-40.16-37.412-66.153-73.977-51.397zM644.867 133.632c-53.705 30.119-16.428 114.086 42.077 94.778 23.703-7.823 35.056-23.899 35.056-49.643 0-39.569-42.603-64.499-77.132-45.135zM83.545 137.377c-37.847 9.967-48.236 59.925-18.068 86.881 18.782 16.782 36.803 18.954 59.568 7.182 29.693-15.355 34.927-60.064 9.702-82.873-15.362-13.89-29.345-16.946-51.203-11.19zM842.832 135.074c-6.608 1.058-18.199 9.273-25.756 18.255-41.948 49.853 27.442 116.13 73.434 70.139 18.829-18.829 21.795-51.645 6.361-70.382-10.452-12.689-35.384-21-54.039-18.012zM115.111 318.424c-24.020 20.212-24.020 54.737 0 74.949 23.342 19.641 49.717 18.963 70.492-1.812 11.735-11.735 15.85-20.994 15.85-35.662s-4.115-23.928-15.85-35.662c-20.775-20.775-47.15-21.453-70.492-1.812zM271.527 320.236c-11.735 11.735-15.85 20.994-15.85 35.662 0 27.55 23.963 51.512 51.512 51.512s51.512-23.963 51.512-51.512c0-14.668-4.115-23.928-15.85-35.662-21.876-21.876-49.449-21.876-71.325 0zM442.722 317.475c-17.097 17.097-21.811 37.409-13.397 57.723 8.937 21.575 25.008 32.213 48.668 32.213 24.876 0 40.996-11.594 48.739-35.056 16.272-49.306-47.757-91.134-84.010-54.88zM613.135 320.236c-11.735 11.735-15.85 20.994-15.85 35.662 0 27.55 23.963 51.512 51.512 51.512s51.512-23.963 51.512-51.512c0-14.668-4.115-23.928-15.85-35.662-21.875-21.876-49.449-21.876-71.325 0zM770.384 320.236c-11.735 11.735-15.85 20.994-15.85 35.662 0 27.55 23.963 51.512 51.512 51.512s51.512-23.963 51.512-51.512c0-14.668-4.115-23.928-15.85-35.662-21.875-21.876-49.449-21.876-71.325 0zM85.259 497.267c-19.872 19.872-3.731 109.15 29.084 160.869 46.818 73.788 137.747 123.418 226.12 123.418h23.661v78.237c0 86.653 1.91 92.094 34.475 98.203 9.823 1.843 52.197 2.549 94.165 1.569 103.253-2.411 99.099 1.791 99.099-100.225v-77.784l25.756-0.080c69.92-0.218 141.612-31.886 190.504-84.152 45.565-48.709 70.911-107.815 71.060-165.712 0.119-46.117 30.679-42.864-402.586-42.864-340.786 0-383.753 0.936-391.339 8.521zM438.798-44.232c-14.094 15.637-16.858 36.544-7.28 55.066 10.509 20.323 23.553 27.857 48.229 27.857 37.212 0 59.475-37.438 42.489-71.452-8.536-17.092-10.683-18.099-41.837-19.604-26.063-1.26-34.648 0.419-41.601 8.134zM225.607-34.758c-27.542 27.542-11.322 80.106 26.935 87.282 36.758 6.896 68.2-25.617 60.163-62.211-8.103-36.891-60.263-51.906-87.097-25.071zM656.514-32.218c-36.032 36.032-1.638 95.634 48.794 84.557 31.467-6.911 47.888-45.313 32.073-75.007-9.724-18.257-21.624-25.039-44.266-25.227-15.843-0.132-24.5 3.576-36.601 15.678zM33.36-33.577c-20.638 8.099-27.112 19.729-27.112 48.707 0 36.195 12.048 50.672 42.172 50.672 25.854 0 42.089-11.251 49.756-34.481 6.811-20.638 1.907-38.892-14.393-53.568-11.556-10.405-37.771-16.295-50.423-11.33zM887.382-32.302c-19.874 8.51-32.288 27.466-32.288 49.303 0 36.243 31.947 58.303 67.698 46.748l18.814-6.081 1.576-38.465c1.136-27.729-0.522-40.206-5.939-44.702-10.516-8.728-36.945-12.334-49.861-6.803zM446.274 133.728c-20.607 17.34-25.951 39.817-14.658 61.654 10.505 20.315 23.522 27.668 48.979 27.668 45.729 0 64.432-55.749 29.561-88.113-20.373-18.909-42.352-19.325-63.882-1.209zM259.88 133.679c-18.739 10.449-25.893 23.874-25.893 48.593 0 45.729 55.749 64.432 88.113 29.561 9.31-10.031 14.911-22.113 14.911-32.162 0-20.64-24.41-47.93-46.090-51.528-9.319-1.547-22.578 0.819-31.042 5.538zM648.666 133.015c-31.297 13.636-38.585 52.802-14.78 79.431 23.301 26.065 65.134 23.045 80.039-5.78 15.742-30.442 8.361-58.918-18.929-73.031-19.031-9.841-24.984-9.921-46.33-0.62zM62.936 149.602c-27.542 27.542-11.322 80.106 26.935 87.282 36.758 6.896 68.2-25.617 60.163-62.211-8.103-36.891-60.263-51.906-87.097-25.071zM819.185 152.143c-36.032 36.032-1.638 95.634 48.794 84.557 22.312-4.901 38.381-26.502 38.381-51.597 0-45.555-54.118-66.016-87.175-32.959zM114.278 320.236c-21.876 21.875-21.876 49.449 0 71.325 22.155 22.155 49.427 21.898 72.004-0.679 14.652-14.652 16.182-19.115 13.474-39.304-6.125-45.664-53.708-63.112-85.478-31.342zM271.527 320.236c-11.735 11.735-15.85 20.994-15.85 35.662s4.115 23.928 15.85 35.662c22.155 22.155 49.427 21.898 72.004-0.679 14.652-14.652 16.182-19.115 13.474-39.304-6.125-45.664-53.708-63.112-85.478-31.342zM449.965 312.68c-20.731 11.259-29.024 39.509-18.788 64.007 9.285 22.223 22.671 30.724 48.379 30.724 46.017 0 65.4-55.815 30.599-88.113-17.933-16.644-37.723-18.819-60.19-6.618zM613.135 320.236c-11.735 11.735-15.85 20.994-15.85 35.662 0 27.55 23.963 51.512 51.512 51.512s51.512-23.963 51.512-51.512c0-14.668-4.115-23.928-15.85-35.662-21.875-21.876-49.449-21.876-71.325 0zM770.384 320.236c-11.735 11.735-15.85 20.994-15.85 35.662 0 27.55 23.963 51.512 51.512 51.512s51.512-23.963 51.512-51.512c0-14.668-4.115-23.928-15.85-35.662-21.875-21.876-49.449-21.876-71.325 0zM85.713 498.662c-16.878 18.65-9.407 80.786 16.229 134.976 19.035 40.236 70.096 93.485 110.079 114.796 34.609 18.447 90.972 32.87 129.058 33.025l23.045 0.094v77.784c0 68.469 1.187 78.858 9.916 86.758 8.437 7.635 24.163 8.974 105.429 8.974 119.502 0 112.394 6.174 112.394-97.631v-73.528l50.957-6.059c63.504-7.55 109.784-28.422 154.196-69.54 48.208-44.632 82.233-118.777 82.233-179.197 0-43.191 28.119-40.369-402.197-40.369-363.542 0-382.806 0.488-391.339 9.916zM236.698-41.518c-27.83 15.961-33.233 53.068-11.42 78.427 24.030 27.937 71.438 17.205 85.407-19.334 6.445-16.858-3.243-46.685-18.674-57.493-13.715-9.606-40.027-10.368-55.313-1.601zM435.807-41.29c-13.117 15.999-9.673 50.303 6.694 66.67 30.353 30.353 84.293 9.306 84.293-32.891 0-35.178-6.41-40.558-48.328-40.558-23.103 0-39.199 2.557-42.659 6.778zM659.762-35.867c-21.278 18.489-23.736 46.523-5.933 67.681 7.832 9.308 21.317 18.478 29.965 20.378 18.263 4.011 45.828-8.193 54.312-24.046 26.011-48.602-36.911-100.014-78.344-64.013zM26.582-28.699c-14.055 7.625-14.911 10.248-14.911 45.682 0 42.459 5.284 48.819 40.558 48.819 26.609 0 46.2-19.591 46.2-46.2 0-26.553-8.246-40.025-30.085-49.15-22.271-9.305-23.073-9.289-41.761 0.849zM892.804-33.341c-29.68 7.18-45.007 40.305-32.5 70.238 8.525 20.402 22.446 28.905 47.326 28.905 26.563 0 31.264-7.829 31.264-52.066 0-38.928-0.055-39.072-17.076-45.006-9.392-3.274-17.322-5.67-17.623-5.324s-5.427 1.81-11.391 3.252zM459.015 124.947c-33.308 14.263-42.068 59.24-16.514 84.795 18.285 18.285 50.223 18.29 69.945 0.011 38.74-35.903-5.108-105.5-53.432-84.807zM262.881 133.484c-27.224 11.634-37.156 42.234-22.586 69.589 9.652 18.123 21.59 25.038 43.546 25.227 29.814 0.256 50.213-19.264 50.213-48.053 0-38.253-35.896-61.838-71.173-46.763zM653.613 130.762c-16.95 6.849-34.639 31.985-34.639 49.225 0 8.355 6.281 22.584 14.038 31.803 11.688 13.891 17.961 16.683 37.475 16.683s25.786-2.792 37.475-16.683c23.53-27.963 13.787-68.853-19.141-80.331-19.757-6.887-19.878-6.89-35.208-0.696zM63.922 150.588c-31.433 31.434-10.212 85.772 33.497 85.772 37.273 0 60.888-31.253 49.558-65.586-11.986-36.317-56.182-47.058-83.055-20.186zM821.383 149.273c-11.885 10.223-15.091 17.645-15.091 34.94 0 39.864 38.324 64.88 72.399 47.259 32.279-16.692 37.747-53.4 11.818-79.329-20.349-20.349-47.495-21.476-69.127-2.87zM127.476 309.763c-6.391 2.579-15.541 10.288-20.334 17.13-33.453 47.761 34.355 108.434 75.359 67.429 41.943-41.943-0.189-106.688-55.025-84.559zM284.724 309.763c-31.724 12.802-38.736 56.26-13.198 81.798 39.971 39.971 103.188-2.89 81.498-55.255-10.688-25.804-40.97-37.573-68.301-26.544zM445.217 319.297c-26.065 23.301-23.045 65.134 5.78 80.039 22.674 11.725 40.193 9.958 59.115-5.964 23.205-19.526 23.557-50.413 0.833-73.137-20.696-20.696-43.266-21.018-65.728-0.939zM624.504 311.083c-30.133 15.846-35.811 56.036-11.369 80.478 20.397 20.398 47.492 21.479 69.25 2.764 12.532-10.779 15.214-17.444 15.214-37.806 0-17.729-3.159-27.878-11.169-35.888-14.103-14.103-44.385-18.771-61.926-9.547zM781.646 311.135c-30.415 15.984-34.453 63.76-7.201 85.196 19.188 15.093 46.278 14.259 65.189-2.007 12.532-10.779 15.214-17.444 15.214-37.806 0-17.729-3.159-27.878-11.169-35.888-14.14-14.141-44.385-18.77-62.033-9.495zM85.745 498.626c-11.238 12.417-11.573 43.057-0.918 83.963 29.5 113.256 115.9 183.883 239.985 196.172l39.312 3.893v73.008c0 40.154 2.526 77.728 5.613 83.496 5.247 9.804 12.329 10.488 108.581 10.488h102.968l5.288-13.909c2.908-7.65 5.288-45.223 5.288-83.496v-69.587l39.312-3.893c131.761-13.049 222.928-94.795 243.737-218.551 5.704-33.925 5.489-41.806-1.48-54.224l-8.155-14.529-385.263-1.391c-367.839-1.329-385.67-0.941-394.269 8.56z" horiz-adv-x="956" />
<glyph unicode="&#xe60b;" d="M608.402 533.046c-277.817 0-543.343-89.991-555.879-246.407h1108.431c-12.536 156.416-274.735 246.407-552.552 246.407zM1162.149 258.009h-1110.812v-274.175h150.534l3.992 105.328 790.135 2.836 3.151-108.164h162.999v274.175zM1048.9 960.566l-884.328-0.245c-52.209-0.035-94.508-42.369-94.508-94.543v-418.371c0-32.53 16.703-62.784 44.295-80.082 15.302-9.594 32.74-14.462 50.248-14.462 14.006 0 28.083 3.116 41.109 9.419l108.69 52.524c30.814 14.882 51.193 45.241 53.259 79.416 2.416 40.163 26.402 171.263 232.471 171.263 5.077 0 10.225-0.070 15.477-0.245 153.475-4.657 228.339-102.807 232.471-171.018 2.031-33.895 22.095-64.079 52.524-79.066l106.484-52.524c13.201-6.513 27.523-9.769 41.809-9.769 17.368 0 34.701 4.797 49.933 14.287 27.733 17.228 44.61 47.587 44.61 80.257v418.616c0 25.071-9.98 49.127-27.698 66.845-17.718 17.753-41.774 27.698-66.845 27.698zM1048.9 866.023v-418.616l-106.449 52.524c-6.968 115.378-120.385 253.621-323.968 259.819-6.233 0.21-12.326 0.28-18.348 0.28-238.634 0-320.046-147.522-326.839-260.099l-108.69-52.524v418.371l884.293 0.245z" horiz-adv-x="1213" />
<glyph unicode="&#xe60c;" d="M125.671-53.627c-20.074 11.61-22.969 20.93-22.969 73.925v46.069l-18.777 9.478c-25.027 12.633-52.99 41.002-65.451 66.399-15.751 32.103-19.345 61.514-17.681 144.717 1.14 57.032 2.675 76.784 7.806 100.485 15.636 72.215 48.581 142.37 88.535 188.534 6.385 7.377 11.599 14.35 11.586 15.495s-11.154 5.183-24.759 8.973c-28.312 7.887-41.581 16.698-49.142 32.632-7.251 15.281-5.017 37.984 4.771 48.461 18.542 19.849 35.947 20.664 94.799 4.442l42.259-11.649 21.528 41.579c37.725 72.859 87.123 141.354 147.915 205.098 16.486 17.287 34.35 33.258 39.698 35.493 7.894 3.298 59.589 4.059 274.881 4.047l265.159-0.015 10.871-6.781c13.926-8.686 69.943-68.217 97.331-103.437 31.824-40.924 66.496-95.138 88.476-138.345 15.379-30.231 20.778-38.337 24.768-37.183 2.806 0.812 11.219 3.011 18.695 4.888s26.421 7.471 42.1 12.432c34.765 11.001 46.767 9.957 63.944-5.563 18.878-17.055 21.655-37.974 8.048-60.612-7.016-11.672-19.766-18.706-50.695-27.969-12.44-3.726-23.13-7.207-23.756-7.736s4.296-7.473 10.936-15.431c31.053-37.212 63.734-96.936 80.473-147.063 16.682-49.955 19.986-76.119 19.937-157.863-0.050-84.013-2.508-101.187-18.91-132.12-12.841-24.217-38.908-49.5-65.374-63.407l-21.394-11.242v-46.209c0-42.956-0.478-46.91-6.796-56.166-14.28-20.92-15.691-21.143-133.664-21.143s-119.384 0.223-133.664 21.143c-6.106 8.945-6.796 13.595-6.796 45.758v35.801h-543.211l-1.008-36.038c-1.091-39.017-3.361-45.151-21.801-58.926-8.013-5.986-12.584-6.258-117.619-6.993-108.558-0.76-109.359-0.72-121.050 6.041zM322.443 244.114c22.244 15.865 33.419 53.313 24.944 83.583-5.039 17.998-24.223 39.687-39.025 44.122-6.281 1.882-22.38 2.924-35.776 2.315-21.741-0.987-25.601-2.095-35.951-10.312-27.801-22.073-35.522-65.76-17.321-98.007 14.355-25.433 25.406-30.606 63.118-29.545 25.931 0.729 31.594 1.839 40.012 7.843zM824.427 240.033c32.298 16.702 43.951 71.79 22.509 106.409-5.606 9.051-13.446 16.56-22.019 21.087l-13.313 7.031-152.823-0.050c-152.709-0.050-152.832-0.055-164.78-6.822-26.746-15.149-40.143-51.956-30.715-84.388 5.398-18.569 16.046-33.272 30.461-42.063 8.639-5.268 18.581-5.605 165.659-5.616 131.485-0.009 157.834 0.695 165.021 4.411zM1076.748 242.936c43.021 25.212 40.132 102.856-4.677 125.716-13.952 7.118-51.987 8.153-67.047 1.824-33.285-13.987-48.642-63.216-31.235-100.128 13.255-28.108 24.586-34.269 63.539-34.546 23.25-0.165 28.625 0.807 39.42 7.134zM779.327 625.308c117.525 5.979 218.522 17.436 245.34 27.831l17.281 6.698-13.694 25.326c-28.332 52.4-61.242 98.576-106.134 148.918l-26.499 29.716-472.276 0.108-23.638-25.92c-42.857-46.994-90.916-115.151-115.407-163.667-5.143-10.189-8.211-19.23-6.816-20.092 4.484-2.771 106.073-16.632 157.591-21.502 105.607-9.983 237.825-12.831 344.251-7.416zM128.378-54.358c-22.366 11.42-24.039 16.191-25.123 71.657l-0.958 49.016-18.63 9.886c-39.209 20.808-68.114 59.129-78.086 103.526-6.291 28.006-5.411 160.817 1.305 197.017 13.879 74.813 51.711 156.787 93.063 201.649 8.659 9.394 11.242 14.001 8.388 14.959-2.269 0.762-13.64 4.158-25.269 7.548-29.401 8.571-40.020 15.847-47.367 32.457-11.22 25.364-3.703 48.214 19.899 60.488 12.325 6.41 37.239 3.696 83.835-9.134l38.243-10.529 13.457 27.834c26.078 53.94 67.269 117.088 109.38 167.684 33.778 40.584 73.077 80.653 84.348 86.002 9.173 4.353 37.793 4.862 273.437 4.862 215.805 0 264.942-0.743 272.912-4.129 11.886-5.049 65.056-59.447 96.742-98.976 34.553-43.106 71.764-100.784 93.29-144.6 10.478-21.329 20.411-38.906 22.072-39.059s24.202 5.97 50.090 13.607c54.135 15.971 63.022 15.634 81.157-3.077 8.425-8.692 10.446-13.383 11.561-26.827 2.619-31.584-11.318-46.196-56.72-59.469-12.46-3.643-23.090-7.028-23.621-7.524s8.453-13.307 19.965-28.47c37.321-49.157 64.367-105.342 81.525-169.358 7.113-26.537 7.79-34.779 9.001-109.556 1.095-67.63 0.492-84.537-3.69-103.331-6.439-28.94-19.112-54.076-36.321-72.036-14.547-15.182-46.504-37.324-58.052-40.222-6.858-1.721-6.932-2.24-6.943-48.987-0.012-54.839-2.791-62.964-24.971-73.033-11.795-5.354-20.654-5.799-115.477-5.799s-103.682 0.445-115.477 5.799c-20.907 9.491-24.958 19.431-24.971 61.277l-0.011 35.493h-543.211l-1.008-36.038c-1.091-39.017-3.361-45.151-21.801-58.926-8.004-5.979-12.638-6.26-116.108-7.040-103.416-0.779-108.26-0.563-119.854 5.357zM316.563 239.854c34.844 18.129 45.039 74.755 19.972 110.927-11.594 16.729-28.306 23.779-56.372 23.779-26.273 0-36.443-3.042-48.605-14.54-33.873-32.023-27.881-100.356 10.457-119.243 13.274-6.539 62.58-7.149 74.548-0.923zM826.553 241.406c21.693 13.228 32.598 37.867 30.805 69.602-1.427 25.262-13.074 46.337-31.317 56.67-11.974 6.782-11.998 6.783-165.371 6.833-122.090 0.040-155.388-0.783-163.162-4.031-14.010-5.854-28.311-23.561-33.708-41.734-7.935-26.719-5.274-45.211 9.963-69.238 15.637-24.657 8.561-23.752 186.249-23.817 149.379-0.055 157.538 0.225 166.541 5.715zM1074.276 240.55c5.725 2.717 14.358 10.678 19.183 17.692 22.901 33.286 18.411 78.397-10.313 103.618-12.68 11.133-24.248 13.75-54.106 12.243-17.822-0.9-24.601-2.711-34.391-9.191-40.441-26.762-36.438-101.919 6.698-125.776 9.728-5.38 60.695-4.391 72.93 1.415zM857.864 629.666c85.858 7.26 150.5 16.289 168.361 23.515l15.819 6.399-13.563 25.496c-27.188 51.109-64.813 103.484-112.732 156.93l-19.635 21.9h-472.818l-22.743-24.92c-30.273-33.171-52.301-61.15-75.62-96.045-19.178-28.699-51.758-86.909-49.65-88.709 1.916-1.636 84.049-13.758 123.442-18.219 32.855-3.721 91.68-8.334 152.543-11.962 44.366-2.645 254.397 1.203 306.596 5.617zM134.779-57.289c-4.786 1.433-12.097 5.734-16.248 9.557-13.446 12.387-15.829 22.965-15.829 70.238v43.846l-14.527 7.361c-35.224 17.849-62.547 47.797-75.060 82.271-14.239 39.229-16.882 151.936-5.195 221.596 11.959 71.286 50.852 156.141 92.052 200.839 8.823 9.572 11.279 14.009 8.365 15.113-2.269 0.86-13.525 4.245-25.015 7.521-28.909 8.243-42.22 17.705-48.672 34.601-12.179 31.889 8.225 62.097 41.954 62.11 9.186 0.004 62.308-12.653 96.167-22.912 3.971-1.203 7.479 3.543 15.588 21.094 13.075 28.3 39.487 73.571 63.563 108.95 39.84 58.544 112.825 140.788 133.121 150.007 11.493 5.221 26.706 5.534 271.97 5.597 163.18 0.042 263.686-1.049 270.256-2.934 11.878-3.406 42.223-32.081 78.34-74.027 50.070-58.151 92.563-121.753 120.612-180.528l14.076-29.496 10.328 1.788c5.68 0.983 28.012 7.107 49.625 13.609 33.983 10.222 40.839 11.406 50.703 8.75 24.626-6.631 37.621-25.656 35.143-51.448-2.245-23.365-13.933-33.632-52.481-46.098l-30.743-9.942 13.738-16.432c40.405-48.326 77.332-124.416 93.039-191.713 7.369-31.57 9.599-169.954 3.225-200.128-10.003-47.356-41.106-87.937-82.722-107.929l-18.791-9.027-0.051-46.82c-0.059-54.361-2.884-62.56-25.011-72.605-11.795-5.354-20.654-5.799-115.477-5.799s-103.682 0.445-115.477 5.799c-20.907 9.491-24.958 19.431-24.971 61.277l-0.011 35.493h-542.972l-1.292-36.247c-1.486-41.688-4.438-48.283-26.7-59.658-13.045-6.666-15.248-6.791-114.608-6.537-55.719 0.143-105.223 1.432-110.008 2.865zM316.456 239.773c32.843 16.984 44.732 71.56 23.183 106.415-13.369 21.623-26.975 28.26-58.061 28.322-30.283 0.060-41.27-4.073-55.731-20.968-32.731-38.238-15.966-106.633 28.989-118.267 13.953-3.611 51.196-0.892 61.62 4.498zM810.81 235.482c15.006 3.48 25.040 10.926 36.432 27.034 7.656 10.825 9.185 16.153 10.157 35.393 1.758 34.815-9.351 58.666-32.928 70.694-11.165 5.696-18.357 5.957-164.143 5.957-100.38 0-155.371-1.098-160.97-3.213-11.515-4.35-24.327-16.925-32.12-31.525-9.426-17.658-9.178-52.136 0.516-71.823 7.943-16.131 22.774-28.976 37.49-32.471 13.934-3.309 291.317-3.352 305.566-0.048zM1079.503 243.753c18.524 13.019 27.581 33.197 27.495 61.252-0.078 25.174-6.013 40.324-21.553 55.015-12.327 11.654-22.372 14.547-50.314 14.491-19.995-0.040-27.014-1.347-36.699-6.833-33.513-18.981-42.748-76.636-17.656-110.23 14.665-19.635 30.041-25.248 64.155-23.423 18.596 0.995 24.519 2.662 34.572 9.727zM1080.574 560.645c-1.004 1.004-3.609 1.111-5.79 0.238-2.41-0.964-1.694-1.68 1.825-1.825 3.184-0.131 4.968 0.583 3.965 1.587zM792.92 625.319c106.163 5.614 208.882 17.833 233.142 27.735l15.655 6.39-11.565 22.938c-22.828 45.28-64.553 104.006-110.192 155.092l-26.311 29.451h-467.193l-24.785-26.431c-29.964-31.953-71.585-86.617-92.572-121.581-16.717-27.852-35.193-63.498-33.663-64.95 1.704-1.617 81.519-13.499 120.269-17.905 34.325-3.902 105.902-9.618 148.012-11.82 43.842-2.292 198.067-1.624 249.204 1.080zM123.538-50.536c-17.94 11.985-20.805 21.973-20.994 73.191l-0.167 45.31-18.611 9.062c-26.981 13.138-51.084 37.986-64.887 66.894l-11.328 23.725-0.911 99.507c-0.752 82.169-0.062 103.748 3.962 123.847 13.362 66.74 53.667 149.583 93.016 191.185 5.083 5.375 8.656 10.241 7.939 10.815s-10.819 3.493-22.448 6.488c-37.808 9.736-52.726 22.070-57.438 47.49-4.677 25.231 13.274 47.542 40.197 49.961 10.288 0.924 26.69-2.117 59.311-10.996 24.799-6.75 45.627-11.737 46.283-11.080s9.030 16.614 18.608 35.461c23.347 45.94 47.527 84.536 79.187 126.397 32.388 42.823 93.417 110.027 106.34 117.097 8.846 4.84 29.633 5.304 272.374 6.087 233.859 0.754 264.185 0.32 275.409-3.94 22.374-8.491 96.286-90.573 139.666-155.104 22.778-33.884 52.345-85.326 62.495-108.73 4.444-10.247 9.955-18.524 12.333-18.524 5.118 0 51.316 12.85 70.051 19.484 38.784 13.735 72.829-4.967 72.86-40.024 0.024-27.307-14.348-41.228-55.251-53.516l-28.897-8.681 14.403-18.289c33.175-42.126 63.535-97.39 78.915-143.646 15.887-47.782 17.895-65.373 17.926-157.074 0.031-91.603-1.324-103.188-15.415-131.757-11.577-23.472-38.965-50.416-64.651-63.602l-22.509-11.555-0.012-45.357c-0.015-51.476-3.054-61.651-21.344-71.46-9.423-5.053-19.491-5.52-119.13-5.52-99.733 0-109.718 0.464-119.363 5.542-16.925 8.912-21.087 20.783-21.093 60.157l-0.005 33.982h-546.737v-37.351c0-33.303-0.684-38.22-6.308-45.37-13.239-16.831-14.26-16.961-133.555-16.961-109.287 0-110.019 0.042-120.221 6.857zM305.923 235.792c6.276 1.743 15.988 7.188 21.584 12.101 32.262 28.327 30.327 91.027-3.61 116.934-9.722 7.422-13.646 8.323-40.315 9.256-26.236 0.918-30.91 0.266-41.737-5.819-22.721-12.77-35.169-39.616-32.689-70.501 2.446-30.469 17.074-52.409 40.517-60.767 13.979-4.984 40.588-5.553 56.251-1.204zM820.106 238.316c46.097 21.342 53.171 92.462 12.474 125.408l-11.52 9.326-156.041 0.864c-85.822 0.475-159.074 0.115-162.782-0.799-10.092-2.489-27.541-19.047-34.551-32.787-8.878-17.402-10.524-42.84-4.036-62.373 6.156-18.534 23.72-37.717 38.415-41.955 5.612-1.618 74.33-2.954 157.945-3.071 137.957-0.192 148.833 0.174 160.094 5.388zM1067.244 236.966c22.629 8.071 37.925 30.335 40.523 58.983 2.176 24-3.354 42.402-17.61 58.598-15.869 18.028-24.111 20.811-57.926 19.555-25.79-0.957-29.386-1.842-39.8-9.791-16.219-12.379-26.53-36.136-26.388-60.796 0.186-32.245 15.91-57.286 41.758-66.5 14.92-5.319 44.598-5.343 59.443-0.048zM1082.147 560.82c-2.077 0.838-5.475 0.838-7.552 0s-0.378-1.524 3.776-1.524c4.153 0 5.853 0.686 3.776 1.524zM850.313 628.12c54.314 4.804 143.561 15.289 155.563 18.276 21.677 5.395 34.74 11.655 34.314 16.446-0.759 8.543-43.25 78.239-67.727 111.088-13.142 17.637-35.891 45.436-50.554 61.777l-26.66 29.71-468.5 1.547-22.701-23.761c-30.462-31.885-56.244-64.607-82.455-104.654-25.636-39.168-48.996-81.792-46.303-84.485 5.653-5.653 157.951-23.249 259.365-29.966 33.638-2.228 280.562 0.919 315.658 4.023zM115.239-44.283c-10.211 10.869-12.537 23.985-12.537 70.694 0 35.133-0.788 43.064-4.278 43.064-2.353 0-14.648 6.936-27.321 15.412-23.377 15.636-39.686 33.993-53.394 60.104l-7.137 13.593v241.652l12.595 36.587c19.695 57.211 43.705 101.385 75.828 139.511 7.416 8.802 12.984 16.393 12.371 16.868s-12.627 4.082-26.699 8.015c-30.376 8.49-46.533 20.933-51.596 39.738-5.981 22.213 1.806 40.828 21.224 50.734 16.763 8.552 27.301 7.724 76.281-5.995 23.711-6.641 44.119-12.078 45.351-12.083s9.826 15.118 19.098 33.605c38.46 76.688 86.629 144.369 150.063 210.85 15.379 16.118 31.98 31.934 36.891 35.147 8.657 5.663 17.077 5.841 276.389 5.841 245.855 0 268.216-0.414 276.818-5.126 11.499-6.299 59.036-55.954 89.726-93.725 33.777-41.569 71.709-100.003 94.867-146.14l20.516-40.874 10.757 1.661c5.916 0.914 26.306 6.44 45.31 12.28s40.129 10.623 46.944 10.628c23.528 0.018 43.476-21.177 43.486-46.206 0.009-25.569-13.188-38.090-54.061-51.286l-31.205-10.075 12.959-14.932c31.72-36.548 65.122-98.342 84.81-156.902l10.156-30.206v-223.829l-11.335-22.941c-13.601-27.528-36.995-50.678-66.773-66.076l-20.041-10.363-0.012-44.358c-0.012-47.013-1.625-55.494-12.478-65.606-6.665-6.21-9.119-6.331-127.992-6.331s-121.327 0.121-127.993 6.331c-10.514 9.795-12.467 18.538-12.467 55.805v34.557l-545.227-1.542-1.51-37.758c-1.545-38.616-4.294-48.587-14.974-54.302-3.658-1.958-49.916-3.090-126.271-3.090h-120.498l-6.64 7.068zM312.637 238.316c24.868 11.514 38.487 34.742 38.503 65.673 0.012 24.018-10.612 48.142-26.565 60.322-10.633 8.118-13.611 8.799-41.899 9.588-27.15 0.757-31.751 0.098-42.428-6.077-35.236-20.38-42.763-80.791-14.285-114.637 4.338-5.155 13.38-11.868 20.094-14.918 16.581-7.532 50.259-7.507 66.579 0.049zM828.373 241.528c33.173 22.738 41.447 75.204 17.15 108.746-18.565 25.629-8.13 24.264-185.51 24.259l-157.074-0.003-11.205-6.784c-22.897-13.862-34.65-40.173-31.832-71.258 2.591-28.571 16.090-49.293 38.528-59.141 9.1-3.994 31.77-4.536 164.829-3.938l154.278 0.693 10.837 7.428zM1068.61 237.265c22.897 9.567 36.577 30.231 39.206 59.222 2.819 31.085-8.935 57.396-31.832 71.258-9.408 5.696-15.565 6.786-38.391 6.795-32.372 0.012-43.595-4.514-57.839-23.327-17.176-22.686-19.645-58.465-5.852-84.792 6.195-11.825 23.605-27.646 33.767-30.686 14.695-4.396 48.809-3.539 60.941 1.53zM1082.205 560.801c-2.045 0.827-6.123 0.878-9.062 0.112s-1.266-1.443 3.718-1.504c4.984-0.062 7.389 0.565 5.344 1.392zM869.947 629.52c87.36 8.362 143.424 16.545 158.23 23.094 7.671 3.393 13.947 7.134 13.947 8.314 0 4.321-34.472 63.244-51.595 88.192-22.403 32.641-45.298 61.348-74.079 92.885l-22.743 24.92h-468.476l-20.049-21.6c-30.967-33.362-59.75-70.199-84.794-108.523-25.491-39.008-47.895-79.944-45.217-82.622 5.135-5.135 148.307-23.097 229.278-28.765 60.592-4.241 307.248-1.472 365.499 4.103zM111.983-40.372c-5.752 7.313-6.261 11.958-6.261 57.228v49.269l-20.688 10.871c-25.783 13.549-52.295 39.702-64.010 63.146l-8.943 17.896v120.006c0 119.778 0.015 120.056 7.734 146.774 15.388 53.258 42.239 105.344 75.614 146.678 8.983 11.126 16.333 20.779 16.333 21.451s-9.175 3.662-20.389 6.643c-37.027 9.842-51.967 20.688-57.712 41.895-6.101 22.521 1.675 40.298 21.913 50.095 17.418 8.432 23.887 7.915 74.297-5.941 24.081-6.619 44.705-12.035 45.831-12.035s11.663 18.518 23.416 41.15c38.989 75.083 88.084 142.935 147.805 204.278l31.614 32.472h560.42l9.816-8.259c17.446-14.68 69.175-73.844 96.743-110.649 30.5-40.718 58.712-86.42 80.119-129.786l14.659-29.697 11.205 1.772c6.163 0.975 26.877 6.522 46.031 12.328 39.052 11.837 49.052 12.721 63.948 5.653 28.064-13.317 33.695-54.922 10.119-74.76-4.815-4.051-22.055-11.757-38.312-17.124s-30.065-10.194-30.685-10.726c-0.62-0.532 4.616-7.483 11.636-15.447 30.257-34.327 64.312-96.096 81.502-147.833l9.181-27.631v-247.158l-10.585-17.946c-13.429-22.768-38.895-46.475-63.704-59.303l-19.329-9.994-0.012-45.618c-0.009-42.531-0.479-46.313-6.928-55.882l-6.917-10.264h-253.253l-6.917 10.264c-6.242 9.263-6.916 13.755-6.916 46.081v35.817l-545.227-1.542-1.51-37.913c-1.17-29.364-2.718-39.751-6.866-46.065l-5.356-8.152h-253.157l-6.261 7.959zM320.907 241.528c32.947 22.59 41.278 75.432 17.146 108.746-15.613 21.553-23.602 24.683-60.4 23.662-29.442-0.817-32.812-1.535-42.732-9.109-30.582-23.35-35.861-78.945-10.425-109.803 14.354-17.413 28.996-22.753 59.673-21.762 21.735 0.703 27.648 2.033 36.738 8.266zM824.917 239.581c17.001 8.928 31.771 32.388 34.589 54.936 3.829 30.647-13.832 67.058-37.228 76.748-5.982 2.478-53.102 3.217-166.858 2.618l-158.523-0.834-9.805-6.994c-32.107-22.9-37.444-80.747-10.414-112.871 4.338-5.155 13.38-11.868 20.094-14.918 11.317-5.14 23.251-5.55 163.52-5.611l151.312-0.066 13.313 6.992zM1068.61 237.265c15.589 6.514 24.494 15.499 32.786 33.083 14.959 31.721 6.092 75.083-19.319 94.48-9.626 7.348-13.784 8.334-39.082 9.273-34.367 1.276-40.033 0.001-53.833-12.115-27.245-23.921-32.554-66.27-12.482-99.558 13.241-21.959 28.678-29.838 58.462-29.838 13.274 0 26.799 1.889 33.466 4.675zM1080.637 560.902c-2.907 0.76-7.665 0.76-10.572 0s-0.529-1.381 5.286-1.381c5.815 0 8.194 0.622 5.286 1.381zM871.457 629.601c61.435 5.693 122.864 13.246 137.44 16.898 19.653 4.924 33.227 10.445 33.185 13.497-0.068 4.837-22.808 45.28-43.173 76.783-22.080 34.156-57.261 78.982-85.386 108.796l-20.142 21.352h-469.336l-21.206-23.41c-32.308-35.666-58.711-69.346-81.568-104.047-23.385-35.504-48.793-82.594-46.046-85.341 4.511-4.511 112.844-19.241 191.465-26.034 100.554-8.688 302.893-7.934 404.767 1.507zM110.331-36.398c-3.549 6.863-4.609 19.669-4.609 55.705v46.793l-18.645 9.937c-22.811 12.158-47.105 33.923-59.601 53.397l-9.353 14.576v278.521l7.898 22.080c17.234 48.178 46.37 99.935 75.408 133.953l12.985 15.213-25.071 6.918c-43.357 11.963-56.086 24.484-56.106 55.191-0.011 15.983 0.712 17.671 11.891 27.77 18.395 16.619 26.67 16.862 81.302 2.383 25.991-6.888 48.85-12.503 50.798-12.479s5.005 4.463 6.793 9.862c4.951 14.947 40.443 78.172 62.154 110.718 25.75 38.602 63.823 86.128 96.423 120.361l26.607 27.941h581.546l32.337-35.493c59.754-65.586 107.083-133.351 139.695-200.016 20.208-41.307 12.506-38.834 67.352-21.631 56.081 17.59 76.732 14.533 90.576-13.407 7.662-15.464 7.683-25.605 0.084-40.501-7.968-15.619-14.42-19.702-48.339-30.588-15.766-5.060-29.129-9.664-29.696-10.232s5.107-8.568 12.609-17.78c27.863-34.208 48.121-68.066 66.393-110.961l11.075-26.001v-303.346l-9.365-13.611c-10.373-15.076-39.65-38.125-59.144-46.561l-12.627-5.465-0.966-47.92c-0.8-39.687-1.886-49.322-6.321-56.080l-5.356-8.16h-256.477l-5.356 8.159c-4.22 6.429-5.568 16.034-6.357 45.31l-1.001 37.151h-546.245v-37.351c0-33.213-0.694-38.232-6.261-45.31l-6.261-7.959h-256.162l-4.609 8.912zM322.641 242.421c14.845 9.832 26.52 30.76 29.44 52.776 3.891 29.335-12.031 62.688-36.116 75.654-12.955 6.974-60.020 7.060-72.802 0.133-22.301-12.086-34.605-36.052-34.605-67.408 0-23.94 5.964-40.197 19.824-54.035 14.201-14.179 23.924-17.084 54.279-16.22 24.143 0.687 28.916 1.774 39.98 9.101zM823.478 238.368c29.188 13.255 45.208 57.7 33.066 91.735-6.265 17.562-16.995 31.356-30.344 39.010l-12.134 6.957h-152.543c-83.899 0-156.176-1.019-160.617-2.265-22.846-6.408-41.687-36.589-41.737-66.86-0.040-23.826 4.845-38.678 17.632-53.617 18.117-21.166 12.205-20.497 181.702-20.555 142.6-0.049 153.353 0.316 164.976 5.594zM1070.162 236.659c13.21 5.53 31.273 26.209 35.178 40.272 8.79 31.654-0.204 69.157-20.728 86.427-12.388 10.423-20.857 12.713-47.019 12.713-26.914 0-35.103-2.384-48.453-14.106-37.66-33.066-30.961-104.159 11.636-123.499 15.306-6.949 54.656-7.974 69.386-1.807zM1082.147 560.951c-3.738 0.72-9.855 0.72-13.593 0s-0.68-1.309 6.796-1.309c7.476 0 10.535 0.589 6.796 1.309zM743.288 622.242c114.798 4.080 247.287 16.834 273.16 26.295 6.645 2.43 15.141 5.145 18.879 6.033s6.796 2.948 6.796 4.577c0 6.181-26.481 53.491-47.817 85.425-26.030 38.961-47.871 66.4-78.696 98.866l-22.301 23.488h-469.136l-13.857-14.348c-44.33-45.901-99.347-122.173-125.125-173.465l-13.171-26.209 8.226-1.725c59.993-12.583 217.074-27.499 314.821-29.895 17.444-0.428 39.873-1.029 49.841-1.336s54.239 0.725 98.38 2.294z" horiz-adv-x="1320" />
<glyph unicode="&#xe60d;" d="M1075.454 10.097l-130.179 323.76h121.835l290.095-323.76h-281.75zM846.111 333.857h22.451l130.201-323.76h-519.084l130.003 323.76h236.429zM121.062 10.097l290.095 323.76h121.835l-130.003-323.76h-281.927zM607.143 396.287h-213.934c-11.259 0-21.766-4.525-28.654-12.186l-345.924-386.189c-8.521-9.492-9.978-22.164-3.819-32.915 6.159-10.618 18.676-17.329 32.451-17.329h1002.273c0.177-0.155 0.353 0 0.353 0h381.465c19.956 0 36.27 13.908 36.27 31.215 0 8.587-4.172 16.226-10.707 22.009l-343.208 383.209c-6.888 7.66-17.418 12.186-28.654 12.186h-477.913zM924.437 734.479c-11.457 0-22.252-4.459-30.354-12.539l-154.772-154.794-154.794 154.794c-8.102 8.080-18.875 12.539-30.332 12.539s-22.208-4.459-30.31-12.561c-8.080-8.080-12.539-18.83-12.539-30.332 0-11.479 4.459-22.274 12.539-30.354l184.242-184.176c8.102-8.168 18.853-12.627 30.376-12.627h1.634c11.479 0 22.23 4.437 30.266 12.495l184.309 184.287c8.146 8.124 12.605 18.919 12.605 30.376 0 11.479-4.415 22.23-12.473 30.288-8.124 8.146-18.919 12.605-30.398 12.605zM695.059 918.916v-381.421c0-48.213 88.545-48.213 88.545 0v381.421c0 48.169-88.545 48.169-88.545 0z" horiz-adv-x="1479" />
<glyph unicode="&#xe60e;" d="M339.823-50.513c-27.402 13.655-57.019 44.665-121.921 127.656-118.047 150.949-195.516 305.337-214.714 427.906-6.626 42.301-2.491 122.227 8.415 162.652 36.228 134.293 146.231 243.655 283.025 281.379 44.806 12.356 157.109 12.467 201.55 0.199 110.743-30.571 208.524-111.524 256.649-212.481 25.51-53.515 34.094-88.705 37.227-152.607 4.487-91.528-16.449-172.609-73.566-284.912-69.759-137.159-213.345-325.858-266.948-350.818-34.825-16.217-75.886-15.833-109.716 1.025zM442.192 163.501c104.382 130.894 178.099 272.207 191.57 367.234 16.521 116.549-55.27 229.039-168.033 263.29-44.822 13.614-115.41 11.331-157.815-5.106-58.655-22.735-113.52-77.503-137.566-137.325-9.699-24.129-11.233-36.566-11.046-89.555 0.202-57.161 1.375-64.684 16.508-105.84 36.125-98.245 110.494-220.156 196.050-321.38 25.825-30.554 21.777-32.205 70.332 28.682zM349.936 421.19c-11.39 3.723-29.635 13.334-40.544 21.356-95.596 70.302-82.111 211.628 24.77 259.594 26.139 11.731 35.036 13.273 67.747 11.745 61.062-2.853 103.027-30.561 129.322-85.387 35.137-73.262 2.934-163.11-71.351-199.071-29.279-14.174-80.128-17.983-109.944-8.236zM356.535-58.377c-33.882 10.858-74.941 52.181-149.326 150.29-209.265 276.004-258.997 494.847-153.223 674.247 26.5 44.946 94.803 113.228 139.439 139.396 39.338 23.062 93.683 42.419 140.3 49.972 198.922 32.23 391.554-93.153 446.147-290.394 13.464-48.646 12.287-156.398-2.301-210.545-30.746-114.123-102.983-247.132-204.992-377.445-92.080-117.629-114.075-135.633-169.073-138.394-18.073-0.907-39.21 0.385-46.971 2.873zM437.103 156.224c143.388 182.045 212.943 337.982 197.090 441.863-24.877 163.012-197.503 254.204-344.774 182.132-93.533-45.774-147.226-146.748-132.663-249.484 9.234-65.138 43.802-147.096 101.138-239.786 42.477-68.668 129.587-182.084 139.562-181.704 1.5 0.057 19.341 21.197 39.647 46.978zM342.755 425.754c-34.956 14.763-53.093 29.297-71.92 57.629-50.524 76.033-23.59 174.963 58.849 216.158 25.313 12.649 35.974 15.105 65.576 15.105 133.016 0 199.997-160.67 106.119-254.549-43.023-43.023-105.859-56.628-158.623-34.344zM362.406-58.336c-31.393 9.477-55.464 29.023-96.787 78.591-195.532 234.547-281.683 429.009-261.952 591.287 11.739 96.545 44.94 163.686 115.873 234.323 39.394 39.23 51.898 48.302 96.493 70.008 68.807 33.492 105.099 41.774 181.688 41.458 71.819-0.296 117.223-10.413 173.513-38.663 47.289-23.733 74.532-44.262 113.372-85.435 126.978-134.604 139.421-321.805 35.103-528.137-50.244-99.378-162.259-257.368-232.028-327.261-35.205-35.267-82.774-49.002-125.274-36.172zM430.609 147.294c97.085 121.593 159.179 227.617 191.349 326.723 17.645 54.36 18.994 124.747 3.219 168.012-39.959 109.591-150.391 177.976-261.071 161.668-108.24-15.949-191.394-98.234-207.781-205.61-15.959-104.574 55.956-264.616 200.352-445.871 21.030-26.399 38.53-47.997 38.888-47.997s16.128 19.384 35.043 43.074zM355.877 420.946c-32.262 10.687-48.631 20.989-69.741 43.89-55.456 60.163-53.041 150.579 5.544 207.516 77.569 75.388 205.851 46.106 244.327-55.772 34.655-91.76-32.907-193.421-133.105-200.285-15.034-1.030-36.195 1.063-47.025 4.65zM355.537-54.486c-31.535 11.253-42.368 19.886-81.969 65.313-100.019 114.735-197.128 268.407-237.89 376.453-44.279 117.367-42.992 256.437 3.222 348.208 54.701 108.625 142.181 180.17 257.904 210.925 29.741 7.904 53.844 10.467 98.456 10.467 72.471 0 117.61-10.663 184.605-43.608 40.009-19.675 53.559-29.818 93.779-70.199 38.394-38.548 51.285-55.527 70.321-92.62 33.316-64.918 43.65-108.018 43.992-183.491 0.422-92.989-23.577-177.181-81.102-284.515-66.33-123.762-201.716-301.586-249.349-327.512-32.046-17.441-69.736-20.924-101.968-9.422zM464.624 191.13c98.533 130.453 155.598 244.092 170.407 339.349 17.478 112.422-50.396 223.286-161.404 263.635-40.346 14.665-115.716 14.923-155.193 0.53-71.551-26.085-127.175-81.536-153.092-152.616-15.775-43.264-14.427-113.652 3.219-168.012 32.221-99.264 94.242-205.103 191.748-327.222l34.791-43.573 14.024 16.498c7.713 9.074 32.688 41.208 55.5 71.41zM361.954 419.445c-45.366 11.341-83.427 43.127-102.958 85.982-15.947 34.992-15.884 89.393 0.142 121.937 46.133 93.683 166.376 116.251 239.7 44.988 91.739-89.16 36.019-243.844-91.927-255.197-14.531-1.289-34.762-0.259-44.957 2.29zM341.046-49.043c-50.651 23.010-200.275 219.77-264.759 348.165-56.795 113.086-67.467 155.305-67.467 266.912 0 71.155 1.547 88.596 10.406 117.327 41.443 134.399 152.84 236.291 289.843 265.11 44.112 9.279 130.058 9.401 173.254 0.246 144.469-30.619 264.283-148.531 296.358-291.655 11.070-49.396 10.341-139.855-1.558-193.479-22.757-102.552-88.993-230.413-186.943-360.871-44.997-59.931-99.186-123.819-116.79-137.693-31.134-24.537-94.472-31.267-132.344-14.062zM435.337 152.008c51.325 63.813 112.395 155.955 143.505 216.52 82.565 160.737 78.453 274.761-13.206 366.216-97.773 97.555-243.112 97.568-340.649 0.030-56.492-56.492-81.218-128.914-69.577-203.792 15.943-102.547 84.159-232.137 198.088-376.304 21.931-27.752 40.669-50.459 41.639-50.459s19.060 21.505 40.201 47.789zM356.164 421.641c-67.555 19.285-117.193 90.258-109.364 156.369 13.683 115.535 141.052 174.395 235.597 108.876 22.97-15.918 49.464-55.602 57.957-86.81 17.685-64.985-21.174-142.774-85.545-171.249-28.724-12.706-69.025-15.642-98.645-7.187zM310.789-27.466c-34.543 31.815-116.577 136.175-165.010 209.919-54.361 82.769-92.673 157.359-114.818 223.539l-17.217 51.453v103.547c0 87.352 1.441 108.177 9.213 133.15 27.571 88.586 104.285 176.605 192.621 221.009l36.921 18.559 136.171 1.448c135.266 1.438 136.371 1.367 166.273-10.784 88.727-36.053 165.964-114.962 206.35-210.818 12.599-29.902 13.071-34.552 14.51-142.745l1.487-111.835-17.166-51.299c-20.074-59.991-56.195-133.895-97.698-199.891-42.956-68.306-123.131-173.476-165.995-217.744l-37.212-38.431h-125.714l-22.716 20.922zM445.747 164.675c115.331 147.752 184.913 286.569 191.776 382.596 11.078 155.008-128.416 282.732-280.484 256.819-53.517-9.12-92.357-29.475-132.125-69.243-91.801-91.801-95.905-205.38-13.237-366.319 50.54-98.39 175.424-270.242 188.498-259.391 3.467 2.877 23.975 27.87 45.572 55.539zM368.729 419.631c-121.107 24.049-163.389 170.799-73.172 253.959 90.468 83.391 233.489 28.306 248.161-95.58 5.725-48.339-21.746-105.414-64.915-134.867-30.637-20.904-75.236-30.43-110.075-23.512zM293.131-8.425c-94.134 99.311-202.514 264.928-250.895 383.398l-21.109 51.689v270.754l13.103 27.937c31.814 67.827 94.37 138.852 152.079 172.667l31.505 18.46h352.531l23.22-11.915c58.985-30.268 119.564-94.939 154.846-165.306l20.981-41.844 1.467-127.259c1.708-148.19 1.618-148.643-50.681-256.719-49.638-102.578-176.376-282.718-238.206-338.578l-20.283-18.325h-135.345l-33.213 35.040zM441.451 157.852c125.053 157.569 197.596 306.877 197.429 406.346-0.265 157.457-151.596 275.747-302.489 236.444-88.83-23.137-161.657-99.176-180.137-188.082-20.392-98.105 35.662-242.323 159.314-409.885 57.082-77.352 77.436-99.49 85.398-92.883 3.776 3.134 21.994 24.76 40.485 48.060zM329.785 434.332c-91.515 45.731-110.38 166.27-37.091 236.996 73.434 70.867 197.909 46.187 238.399-47.268 30.775-71.031 1.077-152.576-68.728-188.711-26.688-13.816-36.057-16.071-66.75-16.071-29.973 0-40.541 2.417-65.83 15.054zM402.644 564.21c0 1.194-2.215 3.54-4.923 5.213s-4.923 0.696-4.923-2.171c0-2.867 2.215-5.213 4.923-5.213s4.923 0.977 4.923 2.171zM320.287-35.315c-7.853 3.178-74.878 81.696-112.807 132.15-77.074 102.527-130.327 193.357-167.226 285.225-11.476 28.573-11.744 32.646-11.744 178.574v149.335l16.787 33.334c25.468 50.573 62.687 94.97 112.879 134.651l23.825 18.836h426.101l31.627-24.415c17.395-13.428 42.783-38.35 56.419-55.381 45.444-56.761 41.251-30.077 41.203-262.202l-0.044-206.893-23.792-46.901c-46.784-92.228-124.843-205.328-204.611-296.464l-37.701-43.074-72.431 0.388c-39.837 0.214-75.155 1.491-78.484 2.838zM431.155 143.353c219.19 274.127 263.617 466.864 136.726 593.166-96.655 96.206-248.375 96.136-344.777-0.158-51.655-51.597-74.731-113.453-70.323-188.505 4.241-72.216 43.794-168.287 113.147-274.831 48.060-73.832 122.152-169.158 131.049-168.607 1.763 0.109 17.143 17.63 34.178 38.935zM340.266 429.282c-32.659 12.94-63.29 42.8-78.915 76.93-10.54 23.022-12.060 32.417-10.481 64.761 4.095 83.87 61.973 140.307 144.389 140.795 131.712 0.78 196.718-156.978 103.215-250.482-27.416-27.416-53.648-38.476-95.83-40.403-28.58-1.306-42.672 0.591-62.377 8.399zM402.644 564.21c0 5.196-9.447 7.379-12.257 2.832-1.701-2.752 0.362-5.003 4.583-5.003s7.675 0.977 7.675 2.171z" horiz-adv-x="791" />
<glyph unicode="&#xe60f;" d="M0 864.27c0-25.782 10.329-49.911 29.057-68.090l358.108-347.614-358.108-347.614c-18.728-18.179-29.057-42.419-29.057-68.090 0-25.782 10.329-49.911 29.057-68.090 18.615-18.179 43.586-28.206 70.146-28.206s51.531 10.026 70.259 28.206l426.097 413.721c18.842 18.179 29.171 42.309 29.171 68.201v3.746c0 25.672-10.215 49.801-28.944 67.87l-426.324 413.941c-18.728 18.29-43.699 28.316-70.259 28.316s-51.418-9.916-70.032-28.096c-18.842-18.179-29.171-42.419-29.171-68.201z" horiz-adv-x="625" />
<glyph unicode="&#xe610;" d="M134.68 48.763l-115.278 112.197 47.099 52.612c25.904 28.936 83.955 91.483 129.002 138.993l81.903 86.381-136.737 123.267c-75.206 67.797-136.532 128.184-136.282 134.195s48.797 64.112 107.88 129.114l107.424 118.186 284.778-260.486 125.057 135.803c68.781 74.692 130.669 133.564 137.529 130.828s63.801-52.23 126.536-109.986l114.064-105.011-261.479-279.6 283.622-260.622-232.832-241.172-273.792 254.358-273.217-271.256-115.278 112.197zM130.17 56.346l-108.367 104.059 254.129 279.918-275.932 259.577 89.651 97.038c49.308 53.371 98.943 107.34 110.301 119.931 16.916 18.753 46.293-0.718 162.44-107.669l141.789-130.563 258.718 281.928 112.57-108.096c61.914-59.453 112.57-114.498 112.57-122.322s-55.356-72.534-123.014-143.799l-123.014-129.572 280.215-258.654-103.282-114.435c-56.805-62.939-110.708-114.435-119.784-114.435s-72.97 53.447-141.987 118.772c-69.017 65.324-128.912 118.772-133.1 118.772s-63.142-57.265-131.008-127.255c-67.866-69.99-130.398-127.255-138.961-127.255s-64.334 46.827-123.935 104.059zM133.648 55.587l-112.734 103.3 254.325 276.391-127.17 127.92c-69.944 70.356-127.17 135.626-127.17 145.044s45.408 62.057 100.907 116.977c115.465 114.261 92.473 118.43 270.781-49.109l108.693-102.129 260.316 280.262 113.222-103.747c62.272-57.061 113.196-108.798 113.164-114.97s-54.879-71.253-121.882-144.623l-121.823-133.401 130.365-127.444c71.701-70.094 130.365-131.382 130.365-136.196 0-15.692-189.119-224.608-203.325-224.608-7.598 0-71.045 53.447-140.993 118.772s-132.527 118.772-139.063 118.772c-6.536 0-65.363-57.265-130.726-127.255s-124.619-127.255-131.68-127.255c-7.061 0-63.568 46.485-125.572 103.3zM143.912 47.039c-58.325 52.030-106.046 103.893-106.046 115.252s31.189 50.834 69.309 87.723c38.12 36.889 91.943 95.368 119.607 129.954l50.298 62.883-128.091 121.674c-70.45 66.921-128.091 127.903-128.091 135.517 0 18.457 186.578 219.386 203.717 219.386 7.381 0 71.965-54.674 143.52-121.498l130.099-121.498 266.757 265.193 81.831-68.595c164.594-137.972 163.163-119.887 21.888-276.601l-123.755-137.279 264.83-266.392-98.722-111.752c-54.297-61.463-103.732-111.752-109.855-111.752s-72.368 56.889-147.212 126.42l-136.079 126.42-122.405-134.904c-67.323-74.197-127.613-134.869-133.979-134.828s-59.295 42.646-117.62 94.676zM143.646 48.752c-58.179 51.372-105.781 99.859-105.781 107.749s53.447 71.989 118.772 142.441c65.324 70.452 118.772 132.711 118.772 138.352s-57.265 63.736-127.255 129.099c-69.99 65.363-127.255 124.681-127.255 131.817s45.066 61.738 100.146 121.338l100.147 108.363 56.802-50.611c31.241-27.836 93.124-84.868 137.518-126.737l80.716-76.126 268.309 266.735 111.752-98.722c61.463-54.297 111.449-103.093 111.079-108.435s-56.578-70.32-124.906-144.395l-124.233-134.682 274.689-260.681-220.002-224.944-277.118 254.764-106.926-120.31c-58.809-66.171-118.742-126.634-133.185-134.364-19.073-10.207-55.208 11.508-132.040 79.35zM125.428 71.616l-89.531 85.394 50.447 63.070c27.746 34.689 81.636 93.252 119.756 130.141s69.309 74.932 69.309 84.54c0 9.608-54.128 67.232-120.284 128.054-139.8 128.528-140.166 137.84-11.036 280.469l75.889 83.822 136.009-122.611c74.805-67.436 140.008-122.611 144.894-122.611s60.484 53.447 123.549 118.772c63.065 65.324 127.034 118.772 142.153 118.772 27.463 0 204.487-167.012 204.487-192.921 0-7.533-53.36-72.18-118.579-143.659l-118.579-129.962 127.063-115.934c69.884-63.763 127.063-127.226 127.063-141.027 0-28.165-165.431-209.704-191.097-209.704-9.075 0-75.416 53.112-147.425 118.027l-130.925 118.027-115.459-118.027c-71.819-73.417-129.201-118.027-151.817-118.027-20.491 0-75.432 37.269-125.889 85.394zM134.63 67.532c-34.556 35.389-62.829 81.058-62.829 101.486 0 22.431 43.904 83.684 110.845 154.645l110.845 117.502-110.845 97.922c-133.369 117.82-144.81 170.803-58.185 269.463 79.639 90.704 128.921 83.001 270.175-42.231l115.285-102.208 88.898 102.208c56.769 65.269 101.985 102.208 125.109 102.208 21.298 0 73.219-37.473 126.065-90.984l89.854-90.984-206.504-232.633 101.897-102.811c87.125-87.906 101.897-111.781 101.897-164.681 0-75.045-63.471-158.237-130.502-171.051-38.502-7.36-65.61 8.895-165.618 99.313l-119.581 108.113-110.714-109.81c-136.497-135.383-181.117-142.731-276.093-45.467z" horiz-adv-x="1030" />
<glyph unicode="&#xe611;" d="M838.896 487.907c-23.042 0-44.724-8.972-60.969-25.217l-311.168-311.168-311.168 311.168c-16.313 16.245-37.927 25.217-60.969 25.217s-44.656-8.972-60.969-25.217c-16.177-16.245-25.149-37.859-25.149-60.969s8.972-44.792 25.217-61.037l370.302-370.234c16.313-16.449 37.927-25.353 61.105-25.353h3.263c23.11 0 44.656 8.904 60.833 25.081l370.506 370.438c16.381 16.313 25.353 38.063 25.353 61.105s-8.904 44.656-25.081 60.833c-16.313 16.381-37.995 25.353-61.105 25.353zM377.799 879.437v-787.504c0-96.926 177.946-96.926 177.946 0v787.504c0 96.858-177.946 96.858-177.946 0z" horiz-adv-x="934" />
<glyph unicode="&#xe612;" d="M568.904 221.013l227.556 227.556-227.556 227.556v-455.111zM0 448.576l227.556-227.556v455.111l-227.556-227.556zM455.124-63.434v1024h-113.778v-1024h113.778z" horiz-adv-x="796" />
</font></defs></svg>